FR.ARBF.00.HHZ 43.491700 5.332500
FR.ARTF.00.HHZ 43.588200 5.806700
FR.BANN.00.HHZ 44.368920 4.156330
FR.BLAF.00.HHZ 43.951000 6.045000
FR.BSTF.00.HHZ 43.800900 5.643300
FR.CALF.00.HHZ 43.752800 6.921800
FR.CFF.00.HHZ 45.763000 3.111110
FR.CLAF.00.HHZ 43.135000 3.090000
FR.COLF.00.HHZ 45.501170 3.694550
FR.EILF.00.HHZ 43.547900 7.131200
FR.ENAUX.00.HHZ 44.109500 6.777500
FR.ESCA.01.HHZ 43.831000 7.374400
FR.FLAF.00.HHZ 43.382700 6.254800
FR.GRN.00.HHZ 45.241300 5.743900
FR.ISO.00.HHZ 44.184000 7.050000
FR.LBL.00.HHZ 45.231300 3.245850
FR.MLYF.00.HHZ 43.988000 5.767500
FR.MON.00.HHZ 43.730343 7.424688
FR.MVIF.00.HHZ 43.896000 7.153000
FR.OGAG.00.HHZ 44.787840 6.539745
FR.OGCB.00.HHZ 44.850137 5.096536
FR.OGDI.00.HHZ 44.109300 6.225300
FR.OGGM.00.HHZ 45.205717 6.116735
FR.OGMO.00.HHZ 45.208650 6.683080
FR.OGMY.00.HHZ 45.881011 5.889317
FR.OGS1.00.HHZ 45.060800 5.804640
FR.OGS2.00.HHZ 45.064800 5.802000
FR.OGS3.00.HHZ 45.069500 5.806100
FR.OGSA.00.HHZ 45.036880 6.400998
FR.OGSM.00.HHZ 45.609314 5.697244
FR.OGVG.00.HHZ 44.815170 6.112330
FR.PLDF.00.HHZ 45.964800 3.622600
FR.PRIMA.00.HHZ 43.644200 7.211000
FR.RSL.00.HHZ 45.688207 6.624517
FR.RUSF.01.HHZ 43.941200 5.483700
FR.RUSF.03.HHZ 43.936300 5.465600
FR.RUSF.04.HHZ 43.940300 5.474600
FR.RUSF.05.HHZ 43.935700 5.483100
FR.RUSF.06.HHZ 43.929300 5.481900
FR.RUSF.07.HHZ 43.941100 5.483900
FR.SAOF.00.HHZ 43.987200 7.554500
FR.SAUF.00.HHZ 43.937700 5.106400
FR.SPIF.00.HHZ 44.055800 7.236600
FR.SURF.00.HHZ 44.480935 6.811695
FR.TRBF.00.HHZ 44.105400 3.958700
FR.TRIGF.00.HHZ 43.747100 6.407400
FR.TURF.00.HHZ 43.974900 7.391900
G.SSB.10.HHZ 45.279000 4.542000
Z3.A174A.00.HHZ 45.992600 4.461900
Z3.A175A.00.HHZ 45.942700 5.074700
Z3.A176A.00.HHZ 45.717800 4.066600
Z3.A177A.00.HHZ 45.596300 4.608600
Z3.A178A.00.HHZ 45.810700 6.200400
Z3.A180A.00.HHZ 45.311300 4.042700
Z3.A181A.00.HHZ 45.380500 6.302000
Z3.A183A.00.HHZ 45.010700 3.663000
Z3.A184A.00.HHZ 44.892000 4.451600
Z3.A185A.00.HHZ 45.120900 5.072800
Z3.A186A.00.HHZ 44.793200 5.589100
Z3.A186B.00.HHZ 44.793000 5.589200
Z3.A187A.00.HHZ 44.734300 3.339800
Z3.A188A.00.HHZ 44.600100 3.936700
Z3.A191A.00.HHZ 44.319300 3.537800
Z3.A192A.00.HHZ 44.506900 4.586900
Z3.A193A.00.HHZ 44.371200 5.147620
Z3.A194A.00.HHZ 44.393300 6.502300
Z3.A196A.00.HHZ 44.051500 4.528000
Z3.A199A.00.HHZ 43.743800 3.688300
Z3.A200A.00.HHZ 43.692700 4.188500
Z3.A201A.00.HHZ 43.500600 4.791700
Z3.A202A.00.HHZ 43.502500 3.260200
Z3.A204A.00.HHZ 43.241300 5.609900
Z3.A205A.00.HHZ 43.200100 6.233500
Z3.A206A.00.HHZ 43.219700 6.601000
Z3.A215A.00.HHZ 45.430700 5.232260
Z3.A216A.00.HHZ 44.429100 5.549890
Z3.A217A.00.HHZ 44.370100 6.073300
ZH.POSAN.00.HHZ 43.104822 5.989785
ZH.POSAS.00.HHZ 43.075530 5.937983
