FR ARBF 00 HHE
FR ARBF 00 HHN
FR ARBF 00 HHZ
FR ARTF 00 HHE
FR ARTF 00 HHN
FR ARTF 00 HHZ
FR BANN 00 HHE
FR BANN 00 HHN
FR BANN 00 HHZ
FR BLAF 00 HHE
FR BLAF 00 HHN
FR BLAF 00 HHZ
FR BSTF 00 HHE
FR BSTF 00 HHN
FR BSTF 00 HHZ
FR CALF 00 HHE
FR CALF 00 HHN
FR CALF 00 HHZ
FR CFF 00 HHE
FR CFF 00 HHN
FR CFF 00 HHZ
FR CLAF 00 HHE
FR CLAF 00 HHN
FR CLAF 00 HHZ
FR COLF 00 HHE
FR COLF 00 HHN
FR COLF 00 HHZ
FR EILF 00 HHE
FR EILF 00 HHN
FR EILF 00 HHZ
FR ENAUX 00 HHE
FR ENAUX 00 HHN
FR ENAUX 00 HHZ
FR ESCA 01 HHE
FR ESCA 01 HHN
FR ESCA 01 HHZ
FR FLAF 00 HHE
FR FLAF 00 HHN
FR FLAF 00 HHZ
FR GRN 00 HHE
FR GRN 00 HHN
FR GRN 00 HHZ
FR ISO 00 HHE
FR ISO 00 HHN
FR ISO 00 HHZ
FR LBL 00 HHE
FR LBL 00 HHN
FR LBL 00 HHZ
FR MLYF 00 HHE
FR MLYF 00 HHN
FR MLYF 00 HHZ
FR MON 00 HHE
FR MON 00 HHN
FR MON 00 HHZ
FR MVIF 00 HHE
FR MVIF 00 HHN
FR MVIF 00 HHZ
FR OGAG 00 HHE
FR OGAG 00 HHN
FR OGAG 00 HHZ
FR OGCB 00 HHE
FR OGCB 00 HHN
FR OGCB 00 HHZ
FR OGDI 00 HHE
FR OGDI 00 HHN
FR OGDI 00 HHZ
FR OGGM 00 HHE
FR OGGM 00 HHN
FR OGGM 00 HHZ
FR OGMO 00 HHE
FR OGMO 00 HHN
FR OGMO 00 HHZ
FR OGMY 00 HHE
FR OGMY 00 HHN
FR OGMY 00 HHZ
FR OGS1 00 HHE
FR OGS1 00 HHZ
FR OGS2 00 HHE
FR OGS2 00 HHN
FR OGS2 00 HHZ
FR OGS3 00 HHE
FR OGS3 00 HHZ
FR OGSA 00 HHE
FR OGSA 00 HHN
FR OGSA 00 HHZ
FR OGSM 00 HHE
FR OGSM 00 HHN
FR OGSM 00 HHZ
FR OGVG 00 HHE
FR OGVG 00 HHN
FR OGVG 00 HHZ
FR PLDF 00 HHE
FR PLDF 00 HHN
FR PLDF 00 HHZ
FR PRIMA 00 HH1
FR PRIMA 00 HH2
FR PRIMA 00 HHZ
FR RSL 00 HHE
FR RSL 00 HHN
FR RSL 00 HHZ
FR RUSF 01 HHE
FR RUSF 01 HHN
FR RUSF 01 HHZ
FR RUSF 03 HHE
FR RUSF 03 HHN
FR RUSF 03 HHZ
FR RUSF 04 HHE
FR RUSF 04 HHN
FR RUSF 04 HHZ
FR RUSF 05 HHE
FR RUSF 05 HHN
FR RUSF 05 HHZ
FR RUSF 06 HHE
FR RUSF 06 HHN
FR RUSF 06 HHZ
FR RUSF 07 HHE
FR RUSF 07 HHN
FR RUSF 07 HHZ
FR SAOF 00 HHE
FR SAOF 00 HHN
FR SAOF 00 HHZ
FR SAUF 00 HHE
FR SAUF 00 HHN
FR SAUF 00 HHZ
FR SPIF 00 HHE
FR SPIF 00 HHN
FR SPIF 00 HHZ
FR SURF 00 HHE
FR SURF 00 HHN
FR SURF 00 HHZ
FR TRBF 00 HHE
FR TRBF 00 HHN
FR TRBF 00 HHZ
FR TRIGF 00 HHE
FR TRIGF 00 HHN
FR TRIGF 00 HHZ
FR TURF 00 HHE
FR TURF 00 HHN
FR TURF 00 HHZ
FR VAL4 00 HH1
FR VAL4 00 HH2
FR VAL4 00 HHZ
G SSB 10 HHE
G SSB 10 HHN
G SSB 10 HHZ
Z3 A174A 00 HHE
Z3 A174A 00 HHN
Z3 A174A 00 HHZ
Z3 A175A 00 HHE
Z3 A175A 00 HHN
Z3 A175A 00 HHZ
Z3 A176A 00 HHE
Z3 A176A 00 HHN
Z3 A176A 00 HHZ
Z3 A177A 00 HHE
Z3 A177A 00 HHN
Z3 A177A 00 HHZ
Z3 A178A 00 HHE
Z3 A178A 00 HHN
Z3 A178A 00 HHZ
Z3 A180A 00 HHE
Z3 A180A 00 HHN
Z3 A180A 00 HHZ
Z3 A181A 00 HHE
Z3 A181A 00 HHN
Z3 A181A 00 HHZ
Z3 A183A 00 HHE
Z3 A183A 00 HHN
Z3 A183A 00 HHZ
Z3 A184A 00 HHE
Z3 A184A 00 HHN
Z3 A184A 00 HHZ
Z3 A185A 00 HHE
Z3 A185A 00 HHN
Z3 A185A 00 HHZ
Z3 A186B 00 HHE
Z3 A186B 00 HHN
Z3 A186B 00 HHZ
Z3 A187A 00 HHE
Z3 A187A 00 HHN
Z3 A187A 00 HHZ
Z3 A188A 00 HHE
Z3 A188A 00 HHN
Z3 A188A 00 HHZ
Z3 A191A 00 HHE
Z3 A191A 00 HHN
Z3 A191A 00 HHZ
Z3 A192A 00 HHE
Z3 A192A 00 HHN
Z3 A192A 00 HHZ
Z3 A193A 00 HHE
Z3 A193A 00 HHN
Z3 A193A 00 HHZ
Z3 A194A 00 HHE
Z3 A194A 00 HHN
Z3 A194A 00 HHZ
Z3 A196A 00 HHE
Z3 A196A 00 HHN
Z3 A196A 00 HHZ
Z3 A199A 00 HHE
Z3 A199A 00 HHN
Z3 A199A 00 HHZ
Z3 A200A 00 HHE
Z3 A200A 00 HHN
Z3 A200A 00 HHZ
Z3 A201A 00 HHE
Z3 A201A 00 HHN
Z3 A201A 00 HHZ
Z3 A202A 00 HHE
Z3 A202A 00 HHN
Z3 A202A 00 HHZ
Z3 A204A 00 HH1
Z3 A204A 00 HH2
Z3 A204A 00 HHZ
Z3 A205A 00 HHE
Z3 A205A 00 HHN
Z3 A205A 00 HHZ
Z3 A206A 00 HHE
Z3 A206A 00 HHN
Z3 A206A 00 HHZ
Z3 A215A 00 HHE
Z3 A215A 00 HHN
Z3 A215A 00 HHZ
Z3 A216A 00 HHE
Z3 A216A 00 HHN
Z3 A216A 00 HHZ
Z3 A217A 00 HHE
Z3 A217A 00 HHN
Z3 A217A 00 HHZ
ZH POSAN 00 HHE
ZH POSAN 00 HHN
ZH POSAN 00 HHZ
ZH POSAS 00 HHE
ZH POSAS 00 HHN
ZH POSAS 00 HHZ
