sta : R2103 : Wed 17 Jun 2020 04:17:46 PM CEST
   Source                Start sample             End sample        Gap  Hz  Samples
SG_R2103__EHZ     2014,129,17:01:32.000000 2014,139,21:26:58.998000  ==  500 439963500
SG_R2103__EHZ     2014,139,22:13:13.000000 2014,154,20:32:29.998000 2774 500 644978500
Total: 1 trace(s) with 2 segment(s)
sta : R2104 : Wed 17 Jun 2020 04:18:25 PM CEST
   Source                Start sample             End sample        Gap  Hz  Samples
SG_R2104__EHZ     2014,129,15:51:30.000000 2014,139,21:53:00.998000  ==  500 442845500
SG_R2104__EHZ     2014,139,22:36:04.000000 2014,143,23:59:59.998000 2583 500 175318000
SG_R2104__EHZ     2014,145,00:00:00.000000 2014,156,08:24:05.998000 1.0d 500 490323000
Total: 1 trace(s) with 3 segment(s)
sta : R2105 : Wed 17 Jun 2020 04:19:13 PM CEST
   Source                Start sample             End sample        Gap  Hz  Samples
SG_R2105__EHZ     2014,129,15:50:55.000000 2014,139,22:05:31.998000  ==  500 443238500
SG_R2105__EHZ     2014,139,22:59:22.000000 2014,155,11:49:47.998000 3230 500 671113000
Total: 1 trace(s) with 2 segment(s)
sta : R2106 : Wed 17 Jun 2020 04:20:06 PM CEST
   Source                Start sample             End sample        Gap  Hz  Samples
SG_R2106__EHZ     2014,129,15:51:23.000000 2014,139,22:10:21.998000  ==  500 443369500
SG_R2106__EHZ     2014,139,23:15:04.000000 2014,154,23:49:42.998000 1.1h 500 649039500
Total: 1 trace(s) with 2 segment(s)
sta : R2107 : Wed 17 Jun 2020 04:21:01 PM CEST
   Source                Start sample             End sample        Gap  Hz  Samples
SG_R2107__EHZ     2014,129,15:57:19.000000 2014,140,00:44:45.998000  ==  500 447823500
SG_R2107__EHZ     2014,140,01:32:05.000000 2014,154,16:08:29.998000 2839 500 631092500
Total: 1 trace(s) with 2 segment(s)
sta : R2108 : Wed 17 Jun 2020 04:21:47 PM CEST
   Source                Start sample             End sample        Gap  Hz  Samples
SG_R2108__EHZ     2014,129,15:53:53.000000 2014,154,16:17:41.998000  ==  500 1080714500
Total: 1 trace(s) with 1 segment(s)
sta : R2109 : Wed 17 Jun 2020 04:22:35 PM CEST
   Source                Start sample             End sample        Gap  Hz  Samples
SG_R2109__EHZ     2014,129,15:55:35.000000 2014,139,23:50:37.998000  ==  500 446251500
SG_R2109__EHZ     2014,140,00:32:16.000000 2014,156,02:33:03.998000 2498 500 694824000
Total: 1 trace(s) with 2 segment(s)
sta : R2110 : Wed 17 Jun 2020 04:23:23 PM CEST
   Source                Start sample             End sample        Gap  Hz  Samples
SG_R2110__EHZ     2014,129,15:56:43.000000 2014,132,23:59:59.998000  ==  500 144098500
SG_R2110__EHZ     2014,134,00:00:00.000000 2014,139,23:03:43.998000 1.0d 500 257512000
SG_R2110__EHZ     2014,140,00:27:53.000000 2014,149,17:01:33.998000 1.4h 500 418610500
Total: 1 trace(s) with 3 segment(s)
sta : R2111 : Wed 17 Jun 2020 04:23:56 PM CEST
   Source                Start sample             End sample        Gap  Hz  Samples
SG_R2111__EHZ     2014,129,16:00:53.000000 2014,139,23:25:21.998000  ==  500 445334500
SG_R2111__EHZ     2014,139,23:38:46.000000 2014,155,14:00:53.998000 804  500 673864000
Total: 1 trace(s) with 2 segment(s)
sta : R2112 : Wed 17 Jun 2020 04:24:41 PM CEST
   Source                Start sample             End sample        Gap  Hz  Samples
SG_R2112__EHZ     2014,129,15:59:39.000000 2014,139,22:05:31.998000  ==  500 442976500
SG_R2112__EHZ     2014,139,23:25:14.000000 2014,154,14:27:50.998000 1.3h 500 631878500
Total: 1 trace(s) with 2 segment(s)
sta : R2113 : Wed 17 Jun 2020 04:25:21 PM CEST
   Source                Start sample             End sample        Gap  Hz  Samples
SG_R2113__EHZ     2014,129,16:00:53.000000 2014,139,22:11:07.998000  ==  500 443107500
SG_R2113__EHZ     2014,139,22:16:42.000000 2014,155,08:21:11.998000 334  500 666135000
Total: 1 trace(s) with 2 segment(s)
sta : R2114 : Wed 17 Jun 2020 04:26:06 PM CEST
   Source                Start sample             End sample        Gap  Hz  Samples
SG_R2114__EHZ     2014,128,23:36:31.000000 2014,139,21:34:19.998000  ==  500 471534500
SG_R2114__EHZ     2014,139,22:08:56.000000 2014,153,08:39:48.998000 2076 500 580526500
Total: 1 trace(s) with 2 segment(s)
sta : R2115 : Wed 17 Jun 2020 04:26:45 PM CEST
   Source                Start sample             End sample        Gap  Hz  Samples
SG_R2115__EHZ     2014,128,23:44:38.000000 2014,130,14:42:58.998000  ==  500 70150500
SG_R2115__EHZ     2014,139,21:14:29.000000 2014,154,16:39:05.998000 9.3d 500 639738500
Total: 1 trace(s) with 2 segment(s)
sta : R2116 : Wed 17 Jun 2020 04:27:12 PM CEST
   Source                Start sample             End sample        Gap  Hz  Samples
SG_R2116__EHZ     2014,128,23:46:21.000000 2014,139,19:59:21.998000  ==  500 468390500
SG_R2116__EHZ     2014,139,20:13:08.000000 2014,155,11:53:51.998000 826  500 676222000
Total: 1 trace(s) with 2 segment(s)
sta : R2117 : Wed 17 Jun 2020 04:27:56 PM CEST
   Source                Start sample             End sample        Gap  Hz  Samples
SG_R2117__EHZ     2014,128,23:46:24.000000 2014,134,23:59:59.998000  ==  500 259608000
SG_R2117__EHZ     2014,136,00:00:00.000000 2014,139,19:20:06.998000 1.0d 500 164403500
SG_R2117__EHZ     2014,139,19:28:08.000000 2014,154,15:27:40.998000 481  500 640786500
Total: 1 trace(s) with 3 segment(s)
sta : R2118 : Wed 17 Jun 2020 04:28:36 PM CEST
   Source                Start sample             End sample        Gap  Hz  Samples
SG_R2118__EHZ     2014,128,23:48:39.000000 2014,139,19:13:37.998000  ==  500 466949500
SG_R2118__EHZ     2014,139,19:21:50.000000 2014,154,23:52:16.998000 492  500 656113500
Total: 1 trace(s) with 2 segment(s)
sta : R2119 : Wed 17 Jun 2020 04:29:15 PM CEST
   Source                Start sample             End sample        Gap  Hz  Samples
SG_R2119__EHZ     2014,128,23:57:04.000000 2014,139,17:24:08.998000  ==  500 463412500
SG_R2119__EHZ     2014,139,18:22:29.000000 2014,156,07:44:28.998000 3500 500 715260000
Total: 1 trace(s) with 2 segment(s)
sta : R2120 : Wed 17 Jun 2020 04:30:03 PM CEST
   Source                Start sample             End sample        Gap  Hz  Samples
SG_R2120__EHZ     2014,128,23:58:34.000000 2014,155,06:40:15.998000  ==  500 1135251000
Total: 1 trace(s) with 1 segment(s)
sta : R2201 : Wed 17 Jun 2020 04:30:49 PM CEST
   Source                Start sample             End sample        Gap  Hz  Samples
SG_R2201__EHZ     2014,128,16:27:05.000000 2014,139,21:28:27.998000  ==  500 484241500
SG_R2201__EHZ     2014,139,21:32:36.000000 2014,155,21:39:51.998000 248  500 691418000
Total: 1 trace(s) with 2 segment(s)
sta : R2202 : Wed 17 Jun 2020 04:31:33 PM CEST
   Source                Start sample             End sample        Gap  Hz  Samples
SG_R2202__EHZ     2014,129,15:47:07.000000 2014,139,21:26:47.998000  ==  500 442190500
SG_R2202__EHZ     2014,139,22:02:27.000000 2014,154,21:49:03.998000 2139 500 647598500
Total: 1 trace(s) with 2 segment(s)
sta : R2203 : Wed 17 Jun 2020 04:32:18 PM CEST
   Source                Start sample             End sample        Gap  Hz  Samples
SG_R2203__EHZ     2014,129,15:40:55.000000 2014,139,21:24:57.998000  ==  500 442321500
SG_R2203__EHZ     2014,139,22:15:35.000000 2014,143,23:59:59.998000 3037 500 175932500
SG_R2203__EHZ     2014,145,00:00:00.000000 2014,154,22:15:17.998000 1.0d 500 428859000
Total: 1 trace(s) with 3 segment(s)
sta : R2204 : Wed 17 Jun 2020 04:33:01 PM CEST
   Source                Start sample             End sample        Gap  Hz  Samples
SG_R2204__EHZ     2014,129,15:39:24.000000 2014,139,21:54:00.998000  ==  500 443238500
SG_R2204__EHZ     2014,139,22:35:42.000000 2014,154,20:41:52.998000 2501 500 644585500
Total: 1 trace(s) with 2 segment(s)
sta : R2205 : Wed 17 Jun 2020 04:33:41 PM CEST
   Source                Start sample             End sample        Gap  Hz  Samples
SG_R2205__EHZ     2014,129,01:16:23.000000 2014,139,22:04:19.998000  ==  500 469438500
SG_R2205__EHZ     2014,139,23:00:38.000000 2014,154,22:29:46.998000 3378 500 647074500
Total: 1 trace(s) with 2 segment(s)
sta : R2206 : Wed 17 Jun 2020 04:34:27 PM CEST
   Source                Start sample             End sample        Gap  Hz  Samples
SG_R2206__EHZ     2014,129,01:13:14.000000 2014,132,18:59:30.998000  ==  500 161588500
SG_R2206__EHZ     2014,139,23:14:40.000000 2014,154,11:48:48.998000 7.2d 500 627424500
Total: 1 trace(s) with 2 segment(s)
sta : R2207 : Wed 17 Jun 2020 04:34:59 PM CEST
   Source                Start sample             End sample        Gap  Hz  Samples
SG_R2207__EHZ     2014,129,00:42:54.000000 2014,140,00:51:42.998000  ==  500 475464500
SG_R2207__EHZ     2014,140,01:28:01.000000 2014,155,22:05:40.998000 2178 500 685130000
Total: 1 trace(s) with 2 segment(s)
sta : R2208 : Wed 17 Jun 2020 04:35:41 PM CEST
   Source                Start sample             End sample        Gap  Hz  Samples
SG_R2208__EHZ     2014,129,00:33:40.000000 2014,154,17:56:16.998000  ==  500 1111278500
Total: 1 trace(s) with 1 segment(s)
sta : R2209 : Wed 17 Jun 2020 04:36:19 PM CEST
   Source                Start sample             End sample        Gap  Hz  Samples
SG_R2209__EHZ     2014,129,00:32:07.000000 2014,139,23:48:31.998000  ==  500 473892500
SG_R2209__EHZ     2014,140,00:31:27.000000 2014,149,23:59:59.998000 2575 500 431056500
SG_R2209__EHZ     2014,151,00:00:00.000000 2014,154,23:21:17.998000 1.0d 500 171639000
Total: 1 trace(s) with 3 segment(s)
sta : R2210 : Wed 17 Jun 2020 04:37:01 PM CEST
   Source                Start sample             End sample        Gap  Hz  Samples
SG_R2210__EHZ     2014,129,00:30:43.000000 2014,139,23:03:27.998000  ==  500 472582500
SG_R2210__EHZ     2014,140,00:28:07.000000 2014,152,07:06:33.998000 1.4h 500 530353500
Total: 1 trace(s) with 2 segment(s)
sta : R2211 : Wed 17 Jun 2020 04:37:43 PM CEST
   Source                Start sample             End sample        Gap  Hz  Samples
SG_R2211__EHZ     2014,129,00:29:49.000000 2014,139,23:28:45.998000  ==  500 473368500
SG_R2211__EHZ     2014,139,23:36:08.000000 2014,155,08:08:55.998000 442  500 663384000
Total: 1 trace(s) with 2 segment(s)
sta : R2212 : Wed 17 Jun 2020 04:38:24 PM CEST
   Source                Start sample             End sample        Gap  Hz  Samples
SG_R2212__EHZ     2014,129,00:28:04.000000 2014,139,22:04:02.998000  ==  500 470879500
SG_R2212__EHZ     2014,139,23:25:37.000000 2014,155,15:36:54.998000 1.4h 500 677139000
Total: 1 trace(s) with 2 segment(s)
sta : R2213 : Wed 17 Jun 2020 04:39:06 PM CEST
   Source                Start sample             End sample        Gap  Hz  Samples
SG_R2213__EHZ     2014,129,00:23:35.000000 2014,139,22:12:39.998000  ==  500 471272500
SG_R2213__EHZ     2014,140,01:31:37.000000 2014,155,00:17:05.998000 3.3h 500 645764500
Total: 1 trace(s) with 2 segment(s)
sta : R2214 : Wed 17 Jun 2020 04:39:48 PM CEST
   Source                Start sample             End sample        Gap  Hz  Samples
SG_R2214__EHZ     2014,129,00:22:07.000000 2014,139,21:36:15.998000  ==  500 470224500
SG_R2214__EHZ     2014,140,01:35:49.000000 2014,156,04:37:44.998000 4.0h 500 696658000
Total: 1 trace(s) with 2 segment(s)
sta : R2215 : Wed 17 Jun 2020 04:40:32 PM CEST
   Source                Start sample             End sample        Gap  Hz  Samples
SG_R2215__EHZ     2014,129,00:12:02.000000 2014,139,20:25:02.998000  ==  500 468390500
SG_R2215__EHZ     2014,139,21:15:01.000000 2014,145,23:59:59.998000 2998 500 264149500
SG_R2215__EHZ     2014,147,00:00:00.000000 2014,155,07:06:24.998000 1.0d 500 358392500
Total: 1 trace(s) with 3 segment(s)
sta : R2216 : Wed 17 Jun 2020 04:41:11 PM CEST
   Source                Start sample             End sample        Gap  Hz  Samples
SG_R2216__EHZ     2014,129,00:09:53.000000 2014,139,19:56:41.998000  ==  500 467604500
SG_R2216__EHZ     2014,139,20:13:40.000000 2014,156,02:23:21.998000 1018 500 702291000
Total: 1 trace(s) with 2 segment(s)
sta : R2217 : Wed 17 Jun 2020 04:41:52 PM CEST
   Source                Start sample             End sample        Gap  Hz  Samples
SG_R2217__EHZ     2014,129,00:09:38.000000 2014,139,19:21:30.998000  ==  500 466556500
SG_R2217__EHZ     2014,139,19:26:36.000000 2014,156,08:48:35.998000 305  500 715260000
Total: 1 trace(s) with 2 segment(s)
sta : R2218 : Wed 17 Jun 2020 04:42:34 PM CEST
   Source                Start sample             End sample        Gap  Hz  Samples
SG_R2218__EHZ     2014,129,00:09:36.000000 2014,139,19:17:06.998000  ==  500 466425500
SG_R2218__EHZ     2014,139,19:20:06.000000 2014,154,21:35:10.998000 179  500 652052500
Total: 1 trace(s) with 2 segment(s)
sta : R2219 : Wed 17 Jun 2020 04:43:12 PM CEST
   Source                Start sample             End sample        Gap  Hz  Samples
SG_R2219__EHZ     2014,129,00:00:25.000000 2014,139,17:23:07.998000  ==  500 463281500
SG_R2219__EHZ     2014,139,18:22:43.000000 2014,155,12:14:26.998000 3575 500 680152000
Total: 1 trace(s) with 2 segment(s)
sta : R2220 : Wed 17 Jun 2020 04:43:52 PM CEST
   Source                Start sample             End sample        Gap  Hz  Samples
SG_R2220__EHZ     2014,128,23:58:28.000000 2014,139,17:08:04.998000  ==  500 462888500
SG_R2220__EHZ     2014,139,17:18:22.000000 2014,155,01:29:19.998000 617  500 662729000
Total: 1 trace(s) with 2 segment(s)
sta : R2301 : Wed 17 Jun 2020 04:44:39 PM CEST
   Source                Start sample             End sample        Gap  Hz  Samples
SG_R2301__EHZ     2014,128,00:00:00.000000 2014,139,21:31:21.998000  ==  500 513941000
SG_R2301__EHZ     2014,139,21:34:07.000000 2014,155,09:32:08.998000 165  500 669541000
Total: 1 trace(s) with 2 segment(s)
sta : R2302 : Wed 17 Jun 2020 04:45:25 PM CEST
   Source                Start sample             End sample        Gap  Hz  Samples
SG_R2302__EHZ     2014,128,00:00:00.000000 2014,139,21:25:43.998000  ==  500 513772000
SG_R2302__EHZ     2014,139,22:01:50.000000 2014,152,06:16:20.998000 2166 500 533235500
Total: 1 trace(s) with 2 segment(s)
sta : R2303 : Wed 17 Jun 2020 04:46:00 PM CEST
   Source                Start sample             End sample        Gap  Hz  Samples
SG_R2303__EHZ     2014,128,00:00:00.000000 2014,139,21:23:51.998000  ==  500 513716000
SG_R2303__EHZ     2014,139,22:14:49.000000 2014,154,00:46:21.998000 3057 500 609346500
Total: 1 trace(s) with 2 segment(s)
sta : R2304 : Wed 17 Jun 2020 04:46:43 PM CEST
   Source                Start sample             End sample        Gap  Hz  Samples
SG_R2304__EHZ     2014,128,00:00:00.000000 2014,139,21:51:19.998000  ==  500 514540000
SG_R2304__EHZ     2014,139,22:33:29.000000 2014,155,22:05:48.998000 2529 500 690370000
Total: 1 trace(s) with 2 segment(s)
sta : R2305 : Wed 17 Jun 2020 04:47:26 PM CEST
   Source                Start sample             End sample        Gap  Hz  Samples
SG_R2305__EHZ     2014,128,00:00:00.000000 2014,139,22:07:59.998000  ==  500 515040000
SG_R2305__EHZ     2014,139,23:00:35.000000 2014,155,11:16:04.998000 3155 500 670065000
Total: 1 trace(s) with 2 segment(s)
sta : R2306 : Wed 17 Jun 2020 04:48:06 PM CEST
   Source                Start sample             End sample        Gap  Hz  Samples
SG_R2306__EHZ     2014,128,00:00:00.000000 2014,139,22:04:34.998000  ==  500 514937500
SG_R2306__EHZ     2014,139,23:13:32.000000 2014,155,08:51:49.998000 1.1h 500 665349000
Total: 1 trace(s) with 2 segment(s)
sta : R2307 : Wed 17 Jun 2020 04:48:56 PM CEST
   Source                Start sample             End sample        Gap  Hz  Samples
SG_R2307__EHZ     2014,128,00:00:00.000000 2014,140,00:50:29.998000  ==  500 519915000
SG_R2307__EHZ     2014,140,01:27:31.000000 2014,152,15:57:33.998000 2221 500 544501500
Total: 1 trace(s) with 2 segment(s)
sta : R2308 : Wed 17 Jun 2020 04:49:42 PM CEST
   Source                Start sample             End sample        Gap  Hz  Samples
SG_R2308__EHZ     2014,128,00:00:00.000000 2014,155,05:05:50.998000  ==  500 1175575500
Total: 1 trace(s) with 1 segment(s)
sta : R2309 : Wed 17 Jun 2020 04:50:25 PM CEST
   Source                Start sample             End sample        Gap  Hz  Samples
SG_R2309__EHZ     2014,128,00:00:00.000000 2014,139,23:50:56.998000  ==  500 518128500
SG_R2309__EHZ     2014,141,00:00:00.000000 2014,155,00:03:39.998000 1.0d 500 604910000
Total: 1 trace(s) with 2 segment(s)
sta : R2310 : Wed 17 Jun 2020 04:51:18 PM CEST
   Source                Start sample             End sample        Gap  Hz  Samples
SG_R2310__EHZ     2014,128,00:00:00.000000 2014,139,23:02:03.998000  ==  500 516662000
SG_R2310__EHZ     2014,140,00:28:30.000000 2014,155,11:38:29.998000 1.4h 500 668100000
Total: 1 trace(s) with 2 segment(s)
sta : R2311 : Wed 17 Jun 2020 04:52:07 PM CEST
   Source                Start sample             End sample        Gap  Hz  Samples
SG_R2311__EHZ     2014,128,00:00:00.000000 2014,139,23:31:20.998000  ==  500 517540500
SG_R2311__EHZ     2014,139,23:43:25.000000 2014,155,01:01:43.998000 724  500 650349500
Total: 1 trace(s) with 2 segment(s)
sta : R2312 : Wed 17 Jun 2020 04:52:54 PM CEST
   Source                Start sample             End sample        Gap  Hz  Samples
SG_R2312__EHZ     2014,128,00:00:00.000000 2014,139,22:06:47.998000  ==  500 515004000
SG_R2312__EHZ     2014,139,23:27:13.000000 2014,155,19:47:24.998000 1.3h 500 684606000
Total: 1 trace(s) with 2 segment(s)
sta : R2313 : Wed 17 Jun 2020 04:53:36 PM CEST
   Source                Start sample             End sample        Gap  Hz  Samples
SG_R2313__EHZ     2014,128,00:00:00.000000 2014,139,22:11:34.998000  ==  500 515147500
SG_R2313__EHZ     2014,140,01:33:10.000000 2014,155,13:57:23.998000 3.4h 500 670327000
Total: 1 trace(s) with 2 segment(s)
sta : R2314 : Wed 17 Jun 2020 04:54:27 PM CEST
   Source                Start sample             End sample        Gap  Hz  Samples
SG_R2314__EHZ     2014,128,00:00:00.000000 2014,139,21:35:50.998000  ==  500 514075500
SG_R2314__EHZ     2014,140,01:37:08.000000 2014,155,16:34:11.998000 4.0h 500 674912000
Total: 1 trace(s) with 2 segment(s)
sta : R2315 : Wed 17 Jun 2020 04:55:16 PM CEST
   Source                Start sample             End sample        Gap  Hz  Samples
SG_R2315__EHZ     2014,128,00:00:00.000000 2014,130,23:59:59.998000  ==  500 129600000
SG_R2315__EHZ     2014,132,00:00:00.000000 2014,139,20:27:20.998000 1.0d 500 339220500
SG_R2315__EHZ     2014,139,21:13:32.000000 2014,155,08:58:27.998000 2771 500 669148000
Total: 1 trace(s) with 3 segment(s)
sta : R2316 : Wed 17 Jun 2020 04:55:59 PM CEST
   Source                Start sample             End sample        Gap  Hz  Samples
SG_R2316__EHZ     2014,128,00:00:00.000000 2014,139,19:57:16.998000  ==  500 511118500
SG_R2316__EHZ     2014,139,20:15:37.000000 2014,155,19:21:44.998000 1100 500 689584000
Total: 1 trace(s) with 2 segment(s)
sta : R2317 : Wed 17 Jun 2020 04:56:38 PM CEST
   Source                Start sample             End sample        Gap  Hz  Samples
SG_R2317__EHZ     2014,128,00:00:00.000000 2014,139,19:22:18.998000  ==  500 510069500
SG_R2317__EHZ     2014,139,19:26:51.000000 2014,155,12:04:20.998000 272  500 677925000
Total: 1 trace(s) with 2 segment(s)
sta : R2318 : Wed 17 Jun 2020 04:57:19 PM CEST
   Source                Start sample             End sample        Gap  Hz  Samples
SG_R2318__EHZ     2014,128,00:00:00.000000 2014,139,19:19:16.998000  ==  500 509978500
SG_R2318__EHZ     2014,139,19:20:27.000000 2014,155,02:52:06.998000 70   500 661550000
Total: 1 trace(s) with 2 segment(s)
sta : R2319 : Wed 17 Jun 2020 04:57:59 PM CEST
   Source                Start sample             End sample        Gap  Hz  Samples
SG_R2319__EHZ     2014,128,00:03:59.000000 2014,139,17:18:57.998000  ==  500 506249500
Total: 1 trace(s) with 1 segment(s)
sta : R2320 : Wed 17 Jun 2020 04:58:19 PM CEST
   Source                Start sample             End sample        Gap  Hz  Samples
SG_R2320__EHZ     2014,128,00:20:00.000000 2014,138,17:29:36.998000  ==  500 462888500
SG_R2320__EHZ     2014,139,17:14:52.000000 2014,155,07:41:21.998000 23.8h 500 673995000
Total: 1 trace(s) with 2 segment(s)
sta : R2401 : Wed 17 Jun 2020 04:59:04 PM CEST
   Source                Start sample             End sample        Gap  Hz  Samples
SG_R2401__EHZ     2014,128,00:00:00.000000 2014,139,21:32:33.998000  ==  500 513977000
SG_R2401__EHZ     2014,139,21:35:50.000000 2014,145,23:59:59.998000 196  500 263525000
SG_R2401__EHZ     2014,147,00:00:00.000000 2014,154,13:30:50.998000 1.0d 500 326725500
Total: 1 trace(s) with 3 segment(s)
sta : R2402 : Wed 17 Jun 2020 04:59:45 PM CEST
   Source                Start sample             End sample        Gap  Hz  Samples
SG_R2402__EHZ     2014,128,00:00:00.000000 2014,139,21:26:27.998000  ==  500 513794000
SG_R2402__EHZ     2014,139,22:01:10.000000 2014,154,14:04:54.998000 2082 500 633712500
Total: 1 trace(s) with 2 segment(s)
sta : R2403 : Wed 17 Jun 2020 05:00:29 PM CEST
   Source                Start sample             End sample        Gap  Hz  Samples
SG_R2403__EHZ     2014,128,00:00:00.000000 2014,139,21:38:32.998000  ==  500 514156500
SG_R2403__EHZ     2014,139,22:24:35.000000 2014,155,04:52:55.998000 2762 500 659650500
Total: 1 trace(s) with 2 segment(s)
sta : R2404 : Wed 17 Jun 2020 05:01:15 PM CEST
   Source                Start sample             End sample        Gap  Hz  Samples
SG_R2404__EHZ     2014,128,00:00:00.000000 2014,139,22:00:29.998000  ==  500 514815000
SG_R2404__EHZ     2014,139,22:34:55.000000 2014,155,05:22:54.998000 2065 500 660240000
Total: 1 trace(s) with 2 segment(s)
sta : R2405 : Wed 17 Jun 2020 05:02:02 PM CEST
   Source                Start sample             End sample        Gap  Hz  Samples
SG_R2405__EHZ     2014,128,00:00:00.000000 2014,139,22:10:44.998000  ==  500 515122500
Total: 1 trace(s) with 1 segment(s)
sta : R2406 : Wed 17 Jun 2020 05:02:27 PM CEST
   Source                Start sample             End sample        Gap  Hz  Samples
SG_R2406__EHZ     2014,128,00:00:00.000000 2014,139,22:18:47.998000  ==  500 515364000
SG_R2406__EHZ     2014,139,23:12:53.000000 2014,155,05:01:55.998000 3245 500 658471500
Total: 1 trace(s) with 2 segment(s)
sta : R2407 : Wed 17 Jun 2020 05:03:16 PM CEST
   Source                Start sample             End sample        Gap  Hz  Samples
SG_R2407__EHZ     2014,128,00:00:00.000000 2014,139,22:14:05.998000  ==  500 515223000
SG_R2407__EHZ     2014,139,23:20:46.000000 2014,156,05:39:11.998000 1.1h 500 702553000
Total: 1 trace(s) with 2 segment(s)
sta : R2408 : Wed 17 Jun 2020 05:04:04 PM CEST
   Source                Start sample             End sample        Gap  Hz  Samples
SG_R2408__EHZ     2014,128,00:00:00.000000 2014,134,23:59:59.998000  ==  500 302400000
SG_R2408__EHZ     2014,136,00:00:00.000000 2014,139,22:30:09.998000 1.0d 500 170105000
SG_R2408__EHZ     2014,139,23:35:10.000000 2014,155,06:53:43.998000 1.1h 500 661157000
Total: 1 trace(s) with 3 segment(s)
sta : R2409 : Wed 17 Jun 2020 05:04:43 PM CEST
   Source                Start sample             End sample        Gap  Hz  Samples
SG_R2409__EHZ     2014,128,00:00:00.000000 2014,139,22:40:28.998000  ==  500 516014500
SG_R2409__EHZ     2014,139,23:35:31.000000 2014,156,01:01:22.998000 3302 500 693776000
Total: 1 trace(s) with 2 segment(s)
sta : R2410 : Wed 17 Jun 2020 05:05:30 PM CEST
   Source                Start sample             End sample        Gap  Hz  Samples
SG_R2410__EHZ     2014,128,00:00:00.000000 2014,139,22:55:36.998000  ==  500 516468500
SG_R2410__EHZ     2014,139,23:48:25.000000 2014,155,04:53:47.998000 3168 500 657161500
Total: 1 trace(s) with 2 segment(s)
sta : R2411 : Wed 17 Jun 2020 05:06:18 PM CEST
   Source                Start sample             End sample        Gap  Hz  Samples
SG_R2411__EHZ     2014,128,00:00:00.000000 2014,139,22:39:56.998000  ==  500 515998500
SG_R2411__EHZ     2014,140,00:04:57.000000 2014,155,13:47:46.998000 1.4h 500 672685000
Total: 1 trace(s) with 2 segment(s)
sta : R2412 : Wed 17 Jun 2020 05:07:09 PM CEST
   Source                Start sample             End sample        Gap  Hz  Samples
SG_R2412__EHZ     2014,128,00:00:00.000000 2014,139,22:55:20.998000  ==  500 516460500
SG_R2412__EHZ     2014,140,00:05:41.000000 2014,155,20:17:08.998000 1.2h 500 684344000
Total: 1 trace(s) with 2 segment(s)
sta : R2413 : Wed 17 Jun 2020 05:08:03 PM CEST
   Source                Start sample             End sample        Gap  Hz  Samples
SG_R2413__EHZ     2014,128,00:00:00.000000 2014,139,22:52:57.998000  ==  500 516389000
SG_R2413__EHZ     2014,140,00:16:41.000000 2014,154,06:04:43.998000 1.4h 500 615241500
Total: 1 trace(s) with 2 segment(s)
sta : R2414 : Wed 17 Jun 2020 05:08:44 PM CEST
   Source                Start sample             End sample        Gap  Hz  Samples
SG_R2414__EHZ     2014,128,00:00:00.000000 2014,139,22:55:22.998000  ==  500 516461500
SG_R2414__EHZ     2014,140,00:16:22.000000 2014,150,23:59:59.998000 1.3h 500 474709000
SG_R2414__EHZ     2014,152,00:00:00.000000 2014,155,16:45:07.998000 1.0d 500 159754000
Total: 1 trace(s) with 3 segment(s)
sta : R2415 : Wed 17 Jun 2020 05:09:24 PM CEST
   Source                Start sample             End sample        Gap  Hz  Samples
SG_R2415__EHZ     2014,128,00:00:00.000000 2014,139,23:23:32.998000  ==  500 517306500
SG_R2415__EHZ     2014,140,00:39:38.000000 2014,154,19:33:40.998000 1.3h 500 638821500
Total: 1 trace(s) with 2 segment(s)
sta : R2416 : Wed 17 Jun 2020 05:10:03 PM CEST
   Source                Start sample             End sample        Gap  Hz  Samples
SG_R2416__EHZ     2014,128,00:00:00.000000 2014,139,23:36:26.998000  ==  500 517693500
SG_R2416__EHZ     2014,140,00:41:25.000000 2014,153,01:22:47.998000 1.1h 500 562841500
Total: 1 trace(s) with 2 segment(s)
sta : R2417 : Wed 17 Jun 2020 05:10:40 PM CEST
   Source                Start sample             End sample        Gap  Hz  Samples
SG_R2417__EHZ     2014,128,00:00:00.000000 2014,139,23:24:35.998000  ==  500 517338000
SG_R2417__EHZ     2014,140,00:54:49.000000 2014,154,18:12:47.998000 1.5h 500 635939500
Total: 1 trace(s) with 2 segment(s)
sta : R2418 : Wed 17 Jun 2020 05:11:21 PM CEST
   Source                Start sample             End sample        Gap  Hz  Samples
SG_R2418__EHZ     2014,128,00:00:00.000000 2014,139,23:44:25.998000  ==  500 517933000
SG_R2418__EHZ     2014,140,00:57:19.000000 2014,155,19:15:14.998000 1.2h 500 680938000
Total: 1 trace(s) with 2 segment(s)
sta : R2419 : Wed 17 Jun 2020 05:12:04 PM CEST
   Source                Start sample             End sample        Gap  Hz  Samples
SG_R2419__EHZ     2014,128,00:00:00.000000 2014,139,23:33:40.998000  ==  500 517610500
SG_R2419__EHZ     2014,140,01:14:50.000000 2014,154,21:40:34.998000 1.7h 500 641572500
Total: 1 trace(s) with 2 segment(s)
sta : R2420 : Wed 17 Jun 2020 05:12:45 PM CEST
   Source                Start sample             End sample        Gap  Hz  Samples
SG_R2420__EHZ     2014,128,00:00:00.000000 2014,139,18:18:09.998000  ==  500 508145000
SG_R2420__EHZ     2014,140,00:59:51.000000 2014,150,23:59:59.998000 6.7h 500 473404500
SG_R2420__EHZ     2014,152,00:00:00.000000 2014,155,06:53:15.998000 1.0d 500 141998000
Total: 1 trace(s) with 3 segment(s)
sta : R2501 : Wed 17 Jun 2020 05:13:23 PM CEST
   Source                Start sample             End sample        Gap  Hz  Samples
SG_R2501__EHZ     2014,128,00:02:21.000000 2014,139,21:34:57.998000  ==  500 513978500
SG_R2501__EHZ     2014,139,21:46:00.000000 2014,154,21:10:46.998000 662  500 646943500
Total: 1 trace(s) with 2 segment(s)
sta : R2502 : Wed 17 Jun 2020 05:14:05 PM CEST
   Source                Start sample             End sample        Gap  Hz  Samples
SG_R2502__EHZ     2014,128,00:00:00.000000 2014,139,21:34:21.998000  ==  500 514031000
SG_R2502__EHZ     2014,139,22:01:38.000000 2014,155,18:13:05.998000 1636 500 684344000
Total: 1 trace(s) with 2 segment(s)
sta : R2503 : Wed 17 Jun 2020 05:14:53 PM CEST
   Source                Start sample             End sample        Gap  Hz  Samples
SG_R2503__EHZ     2014,128,00:00:00.000000 2014,139,21:40:58.998000  ==  500 514229500
SG_R2503__EHZ     2014,139,22:17:10.000000 2014,155,13:05:29.998000 2171 500 674650000
Total: 1 trace(s) with 2 segment(s)
sta : R2504 : Wed 17 Jun 2020 05:15:42 PM CEST
   Source                Start sample             End sample        Gap  Hz  Samples
SG_R2504__EHZ     2014,128,00:00:00.000000 2014,139,22:02:47.998000  ==  500 514884000
SG_R2504__EHZ     2014,139,22:31:45.000000 2014,156,11:40:38.998000 1737 500 714867000
Total: 1 trace(s) with 2 segment(s)
sta : R2505 : Wed 17 Jun 2020 05:16:32 PM CEST
   Source                Start sample             End sample        Gap  Hz  Samples
SG_R2505__EHZ     2014,128,00:00:00.000000 2014,133,22:34:53.998000  ==  500 256647000
SG_R2505__EHZ     2014,139,23:02:05.000000 2014,155,04:59:51.998000 6.0d 500 658733500
Total: 1 trace(s) with 2 segment(s)
sta : R2506 : Wed 17 Jun 2020 05:17:07 PM CEST
   Source                Start sample             End sample        Gap  Hz  Samples
SG_R2506__EHZ     2014,128,00:00:00.000000 2014,139,22:21:31.998000  ==  500 515446000
SG_R2506__EHZ     2014,139,23:11:53.000000 2014,151,23:59:59.998000 3021 500 519843500
Total: 1 trace(s) with 2 segment(s)
sta : R2507 : Wed 17 Jun 2020 05:17:50 PM CEST
   Source                Start sample             End sample        Gap  Hz  Samples
SG_R2507__EHZ     2014,128,00:00:00.000000 2014,139,22:14:52.998000  ==  500 515246500
SG_R2507__EHZ     2014,139,23:22:32.000000 2014,156,02:37:33.998000 1.1h 500 697051000
Total: 1 trace(s) with 2 segment(s)
sta : R2508 : Wed 17 Jun 2020 05:18:43 PM CEST
   Source                Start sample             End sample        Gap  Hz  Samples
SG_R2508__EHZ     2014,128,00:00:00.000000 2014,139,22:30:39.998000  ==  500 515720000
SG_R2508__EHZ     2014,139,23:33:57.000000 2014,154,20:56:27.998000 1.1h 500 643275500
Total: 1 trace(s) with 2 segment(s)
sta : R2509 : Wed 17 Jun 2020 05:19:26 PM CEST
   Source                Start sample             End sample        Gap  Hz  Samples
SG_R2509__EHZ     2014,128,00:00:00.000000 2014,139,22:43:27.998000  ==  500 516104000
SG_R2509__EHZ     2014,139,23:36:50.000000 2014,155,10:16:15.998000 3202 500 667183000
Total: 1 trace(s) with 2 segment(s)
sta : R2510 : Wed 17 Jun 2020 05:20:08 PM CEST
   Source                Start sample             End sample        Gap  Hz  Samples
SG_R2510__EHZ     2014,128,00:00:00.000000 2014,139,22:58:42.998000  ==  500 516561500
SG_R2510__EHZ     2014,139,23:49:31.000000 2014,154,22:08:47.998000 3048 500 644978500
Total: 1 trace(s) with 2 segment(s)
sta : R2511 : Wed 17 Jun 2020 05:20:50 PM CEST
   Source                Start sample             End sample        Gap  Hz  Samples
SG_R2511__EHZ     2014,128,00:00:00.000000 2014,139,22:45:31.998000  ==  500 516166000
SG_R2511__EHZ     2014,140,00:03:31.000000 2014,155,22:17:14.998000 1.3h 500 688012000
Total: 1 trace(s) with 2 segment(s)
sta : R2512 : Wed 17 Jun 2020 05:21:39 PM CEST
   Source                Start sample             End sample        Gap  Hz  Samples
SG_R2512__EHZ     2014,128,00:00:00.000000 2014,132,23:59:59.998000  ==  500 216000000
SG_R2512__EHZ     2014,134,00:00:00.000000 2014,139,22:57:39.998000 1.0d 500 257330000
SG_R2512__EHZ     2014,140,00:08:22.000000 2014,154,18:23:06.998000 1.2h 500 637642500
Total: 1 trace(s) with 3 segment(s)
sta : R2513 : Wed 17 Jun 2020 05:22:27 PM CEST
   Source                Start sample             End sample        Gap  Hz  Samples
SG_R2513__EHZ     2014,128,00:00:00.000000 2014,139,22:54:25.998000  ==  500 516433000
SG_R2513__EHZ     2014,140,00:13:42.000000 2014,155,15:36:57.998000 1.3h 500 675698000
Total: 1 trace(s) with 2 segment(s)
sta : R2514 : Wed 17 Jun 2020 05:23:02 PM CEST
   Source                Start sample             End sample        Gap  Hz  Samples
SG_R2514__EHZ     2014,128,00:00:00.000000 2014,139,23:00:24.998000  ==  500 516612500
SG_R2514__EHZ     2014,140,00:19:35.000000 2014,155,03:40:09.998000 1.3h 500 654017500
Total: 1 trace(s) with 2 segment(s)
sta : R2515 : Wed 17 Jun 2020 05:23:43 PM CEST
   Source                Start sample             End sample        Gap  Hz  Samples
SG_R2515__EHZ     2014,128,01:27:07.000000 2014,139,23:25:55.998000  ==  500 514764500
SG_R2515__EHZ     2014,140,00:35:30.000000 2014,155,16:29:19.998000 1.2h 500 676615000
Total: 1 trace(s) with 2 segment(s)
sta : R2516 : Wed 17 Jun 2020 05:24:19 PM CEST
   Source                Start sample             End sample        Gap  Hz  Samples
SG_R2516__EHZ     2014,128,00:00:00.000000 2014,139,23:37:23.998000  ==  500 517722000
SG_R2516__EHZ     2014,140,00:42:49.000000 2014,152,02:28:41.998000 1.1h 500 521576500
Total: 1 trace(s) with 2 segment(s)
sta : R2517 : Wed 17 Jun 2020 05:24:51 PM CEST
   Source                Start sample             End sample        Gap  Hz  Samples
SG_R2517__EHZ     2014,128,00:00:00.000000 2014,139,23:30:16.998000  ==  500 517508500
SG_R2517__EHZ     2014,140,00:52:01.000000 2014,155,06:14:51.998000 1.4h 500 657685500
Total: 1 trace(s) with 2 segment(s)
sta : R2518 : Wed 17 Jun 2020 05:25:25 PM CEST
   Source                Start sample             End sample        Gap  Hz  Samples
SG_R2518__EHZ     2014,128,00:00:00.000000 2014,139,23:45:32.998000  ==  500 517966500
SG_R2518__EHZ     2014,141,00:00:00.000000 2014,154,17:23:55.998000 1.0d 500 592918000
Total: 1 trace(s) with 2 segment(s)
sta : R2519 : Wed 17 Jun 2020 05:25:54 PM CEST
   Source                Start sample             End sample        Gap  Hz  Samples
SG_R2519__EHZ     2014,128,00:00:00.000000 2014,139,23:44:36.998000  ==  500 517938500
SG_R2519__EHZ     2014,140,01:13:38.000000 2014,154,19:50:12.998000 1.5h 500 638297500
Total: 1 trace(s) with 2 segment(s)
sta : R2520 : Wed 17 Jun 2020 05:26:23 PM CEST
   Source                Start sample             End sample        Gap  Hz  Samples
SG_R2520__EHZ     2014,128,00:00:00.000000 2014,139,18:17:05.998000  ==  500 508113000
SG_R2520__EHZ     2014,140,01:05:04.000000 2014,156,09:21:23.998000 6.8h 500 706090000
Total: 1 trace(s) with 2 segment(s)
sta : R2601 : Wed 17 Jun 2020 05:26:51 PM CEST
   Source                Start sample             End sample        Gap  Hz  Samples
SG_R2601__EHZ     2014,130,00:59:59.000000 2014,139,21:33:49.998000  ==  500 425815500
SG_R2601__EHZ     2014,139,21:46:15.000000 2014,155,04:51:42.998000 745  500 660764000
Total: 1 trace(s) with 2 segment(s)
sta : R2602 : Wed 17 Jun 2020 05:27:16 PM CEST
   Source                Start sample             End sample        Gap  Hz  Samples
SG_R2602__EHZ     2014,130,00:59:08.000000 2014,139,21:37:20.998000  ==  500 425946500
SG_R2602__EHZ     2014,139,21:58:19.000000 2014,154,15:55:35.998000 1258 500 637118500
Total: 1 trace(s) with 2 segment(s)
