sta : R6408 : Wed 17 Jun 2020 04:18:53 PM CEST
   Source                Start sample             End sample        Gap  Hz  Samples
SG_R6408__EHZ     2014,142,00:24:37.000000 2014,157,03:27:43.998000  ==  500 653493500
Total: 1 trace(s) with 1 segment(s)
sta : R6410 : Wed 17 Jun 2020 04:19:16 PM CEST
   Source                Start sample             End sample        Gap  Hz  Samples
SG_R6410__EHZ     2014,142,00:54:11.000000 2014,149,23:59:59.998000  ==  500 343974500
SG_R6410__EHZ     2014,151,00:00:00.000000 2014,156,17:19:45.998000 1.0d 500 247193000
Total: 1 trace(s) with 2 segment(s)
sta : R6608 : Wed 17 Jun 2020 04:19:35 PM CEST
   Source                Start sample             End sample        Gap  Hz  Samples
SG_R6608__EHZ     2014,142,00:24:37.000000 2014,156,15:31:35.998000  ==  500 632009500
Total: 1 trace(s) with 1 segment(s)
sta : R6610 : Wed 17 Jun 2020 04:19:57 PM CEST
   Source                Start sample             End sample        Gap  Hz  Samples
SG_R6610__EHZ     2014,142,00:51:08.000000 2014,156,16:24:18.998000  ==  500 632795500
Total: 1 trace(s) with 1 segment(s)
sta : R6808 : Wed 17 Jun 2020 04:20:19 PM CEST
   Source                Start sample             End sample        Gap  Hz  Samples
SG_R6808__EHZ     2014,142,00:25:51.000000 2014,156,22:32:01.998000  ==  500 644585500
Total: 1 trace(s) with 1 segment(s)
sta : R6810 : Wed 17 Jun 2020 04:20:46 PM CEST
   Source                Start sample             End sample        Gap  Hz  Samples
SG_R6810__EHZ     2014,142,01:14:37.000000 2014,156,18:23:51.998000  ==  500 635677500
Total: 1 trace(s) with 1 segment(s)
sta : R7008 : Wed 17 Jun 2020 04:21:10 PM CEST
   Source                Start sample             End sample        Gap  Hz  Samples
SG_R7008__EHZ     2014,142,00:37:06.000000 2014,158,01:10:33.998000  ==  500 692204000
Total: 1 trace(s) with 1 segment(s)
sta : R7010 : Wed 17 Jun 2020 04:21:41 PM CEST
   Source                Start sample             End sample        Gap  Hz  Samples
SG_R7010__EHZ     2014,142,00:49:36.000000 2014,156,13:14:55.446000  ==  500 627159724
Total: 1 trace(s) with 1 segment(s)
