sta : R1603 : Wed 17 Jun 2020 04:17:40 PM CEST
   Source                Start sample             End sample        Gap  Hz  Samples
SG_R1603__EHZ     2014,128,17:08:12.000000 2014,139,18:35:36.998000  ==  500 477822500
SG_R1603__EHZ     2014,139,18:52:53.000000 2014,155,03:08:12.998000 1036 500 662860000
Total: 1 trace(s) with 2 segment(s)
sta : R1604 : Wed 17 Jun 2020 04:18:16 PM CEST
   Source                Start sample             End sample        Gap  Hz  Samples
SG_R1604__EHZ     2014,128,17:36:20.000000 2014,139,18:24:26.998000  ==  500 476643500
SG_R1604__EHZ     2014,139,19:42:27.000000 2014,155,10:26:24.998000 1.3h 500 674519000
Total: 1 trace(s) with 2 segment(s)
sta : R1605 : Wed 17 Jun 2020 04:19:01 PM CEST
   Source                Start sample             End sample        Gap  Hz  Samples
SG_R1605__EHZ     2014,128,17:46:48.000000 2014,139,18:48:00.998000  ==  500 477036500
SG_R1605__EHZ     2014,139,19:46:41.000000 2014,155,05:42:26.998000 3520 500 665873000
Total: 1 trace(s) with 2 segment(s)
sta : R1606 : Wed 17 Jun 2020 04:19:56 PM CEST
   Source                Start sample             End sample        Gap  Hz  Samples
SG_R1606__EHZ     2014,128,18:04:52.000000 2014,139,20:37:46.998000  ==  500 479787500
SG_R1606__EHZ     2014,139,20:43:05.000000 2014,153,21:29:49.998000 318  500 606202500
Total: 1 trace(s) with 2 segment(s)
sta : R1607 : Wed 17 Jun 2020 04:20:43 PM CEST
   Source                Start sample             End sample        Gap  Hz  Samples
SG_R1607__EHZ     2014,128,18:37:55.000000 2014,140,00:40:25.998000  ==  500 486075500
SG_R1607__EHZ     2014,140,01:36:12.000000 2014,155,14:04:47.998000 3346 500 670458000
Total: 1 trace(s) with 2 segment(s)
sta : R1608 : Wed 17 Jun 2020 04:21:28 PM CEST
   Source                Start sample             End sample        Gap  Hz  Samples
SG_R1608__EHZ     2014,128,18:16:58.000000 2014,139,23:40:10.998000  ==  500 484896500
SG_R1608__EHZ     2014,140,01:17:40.000000 2014,144,23:59:59.998000 1.6h 500 213670000
SG_R1608__EHZ     2014,146,00:00:00.000000 2014,155,01:52:18.998000 1.0d 500 392169500
Total: 1 trace(s) with 3 segment(s)
sta : R1609 : Wed 17 Jun 2020 04:22:20 PM CEST
   Source                Start sample             End sample        Gap  Hz  Samples
SG_R1609__EHZ     2014,128,18:41:25.000000 2014,140,00:26:27.998000  ==  500 485551500
SG_R1609__EHZ     2014,140,00:53:09.000000 2014,154,05:22:35.998000 1601 500 612883500
Total: 1 trace(s) with 2 segment(s)
sta : R1610 : Wed 17 Jun 2020 04:22:58 PM CEST
   Source                Start sample             End sample        Gap  Hz  Samples
SG_R1610__EHZ     2014,128,18:49:54.000000 2014,139,22:58:52.998000  ==  500 482669500
SG_R1610__EHZ     2014,140,00:22:48.000000 2014,156,00:08:13.998000 1.4h 500 690763000
Total: 1 trace(s) with 2 segment(s)
sta : R1611 : Wed 17 Jun 2020 04:23:45 PM CEST
   Source                Start sample             End sample        Gap  Hz  Samples
SG_R1611__EHZ     2014,128,18:59:08.000000 2014,139,22:55:00.998000  ==  500 482276500
SG_R1611__EHZ     2014,139,23:55:12.000000 2014,155,04:08:10.998000 1.0h 500 655589500
Total: 1 trace(s) with 2 segment(s)
sta : R1612 : Wed 17 Jun 2020 04:24:31 PM CEST
   Source                Start sample             End sample        Gap  Hz  Samples
SG_R1612__EHZ     2014,128,19:07:13.000000 2014,139,22:01:57.998000  ==  500 480442500
SG_R1612__EHZ     2014,139,23:27:06.000000 2014,153,00:21:34.998000 1.4h 500 563234500
Total: 1 trace(s) with 2 segment(s)
sta : R1613 : Wed 17 Jun 2020 04:25:11 PM CEST
   Source                Start sample             End sample        Gap  Hz  Samples
SG_R1613__EHZ     2014,128,19:17:22.000000 2014,139,21:54:38.998000  ==  500 479918500
SG_R1613__EHZ     2014,139,22:21:14.000000 2014,155,02:12:22.998000 1595 500 654934500
Total: 1 trace(s) with 2 segment(s)
sta : R1614 : Wed 17 Jun 2020 04:25:52 PM CEST
   Source                Start sample             End sample        Gap  Hz  Samples
SG_R1614__EHZ     2014,128,19:27:12.000000 2014,139,21:29:32.998000  ==  500 478870500
SG_R1614__EHZ     2014,139,22:03:46.000000 2014,155,21:53:33.998000 2053 500 690894000
Total: 1 trace(s) with 2 segment(s)
sta : R1615 : Wed 17 Jun 2020 04:26:45 PM CEST
   Source                Start sample             End sample        Gap  Hz  Samples
SG_R1615__EHZ     2014,128,20:11:19.000000 2014,139,20:15:45.998000  ==  500 475333500
SG_R1615__EHZ     2014,139,21:22:06.000000 2014,155,13:37:45.998000 1.1h 500 677270000
Total: 1 trace(s) with 2 segment(s)
sta : R1616 : Wed 17 Jun 2020 04:27:38 PM CEST
   Source                Start sample             End sample        Gap  Hz  Samples
SG_R1616__EHZ     2014,128,20:35:15.000000 2014,139,19:56:01.998000  ==  500 474023500
SG_R1616__EHZ     2014,139,20:09:42.000000 2014,154,20:00:40.998000 820  500 647729500
Total: 1 trace(s) with 2 segment(s)
sta : R1617 : Wed 17 Jun 2020 04:28:24 PM CEST
   Source                Start sample             End sample        Gap  Hz  Samples
SG_R1617__EHZ     2014,128,20:51:46.000000 2014,139,19:15:46.998000  ==  500 472320500
Total: 1 trace(s) with 1 segment(s)
sta : R1618 : Wed 17 Jun 2020 04:28:42 PM CEST
   Source                Start sample             End sample        Gap  Hz  Samples
SG_R1618__EHZ     2014,128,20:58:24.000000 2014,139,19:09:18.998000  ==  500 471927500
SG_R1618__EHZ     2014,139,19:12:33.000000 2014,155,19:32:54.998000 194  500 691811000
Total: 1 trace(s) with 2 segment(s)
sta : R1619 : Wed 17 Jun 2020 04:29:35 PM CEST
   Source                Start sample             End sample        Gap  Hz  Samples
SG_R1619__EHZ     2014,128,21:13:44.000000 2014,139,17:31:06.998000  ==  500 468521500
SG_R1619__EHZ     2014,139,18:16:25.000000 2014,155,20:08:28.998000 2718 500 694562000
Total: 1 trace(s) with 2 segment(s)
sta : R1620 : Wed 17 Jun 2020 04:30:12 PM CEST
   Source                Start sample             End sample        Gap  Hz  Samples
SG_R1620__EHZ     2014,128,21:53:57.000000 2014,139,17:23:17.998000  ==  500 467080500
SG_R1620__EHZ     2014,139,17:37:08.000000 2014,155,10:49:33.998000 830  500 678973000
Total: 1 trace(s) with 2 segment(s)
sta : R1701 : Wed 17 Jun 2020 04:30:53 PM CEST
   Source                Start sample             End sample        Gap  Hz  Samples
SG_R1701__EHZ     2014,128,16:32:54.000000 2014,139,17:21:00.998000  ==  500 476643500
SG_R1701__EHZ     2014,139,17:29:42.000000 2014,150,23:59:59.998000 521  500 486909000
SG_R1701__EHZ     2014,152,00:00:00.000000 2014,154,02:16:46.998000 1.0d 500 90503500
Total: 1 trace(s) with 3 segment(s)
sta : R1702 : Wed 17 Jun 2020 04:31:38 PM CEST
   Source                Start sample             End sample        Gap  Hz  Samples
SG_R1702__EHZ     2014,128,16:52:26.000000 2014,139,18:24:12.998000  ==  500 477953500
SG_R1702__EHZ     2014,139,18:30:12.000000 2014,155,11:20:47.998000 359  500 678318000
Total: 1 trace(s) with 2 segment(s)
sta : R1703 : Wed 17 Jun 2020 04:32:34 PM CEST
   Source                Start sample             End sample        Gap  Hz  Samples
SG_R1703__EHZ     2014,128,17:01:45.000000 2014,139,18:33:31.998000  ==  500 477953500
SG_R1703__EHZ     2014,139,21:12:06.000000 2014,155,21:36:49.998000 2.6h 500 691942000
Total: 1 trace(s) with 2 segment(s)
sta : R1704 : Wed 17 Jun 2020 04:33:24 PM CEST
   Source                Start sample             End sample        Gap  Hz  Samples
SG_R1704__EHZ     2014,128,17:36:53.000000 2014,139,18:24:59.998000  ==  500 476643500
SG_R1704__EHZ     2014,139,19:39:19.000000 2014,155,16:21:20.998000 1.2h 500 685261000
Total: 1 trace(s) with 2 segment(s)
sta : R1705 : Wed 17 Jun 2020 04:34:13 PM CEST
   Source                Start sample             End sample        Gap  Hz  Samples
SG_R1705__EHZ     2014,128,17:47:00.000000 2014,139,18:48:12.998000  ==  500 477036500
SG_R1705__EHZ     2014,139,22:54:13.000000 2014,155,09:38:00.998000 4.1h 500 667314000
Total: 1 trace(s) with 2 segment(s)
sta : R1706 : Wed 17 Jun 2020 04:35:00 PM CEST
   Source                Start sample             End sample        Gap  Hz  Samples
SG_R1706__EHZ     2014,128,18:07:41.000000 2014,139,19:43:49.998000  ==  500 478084500
SG_R1706__EHZ     2014,139,20:34:13.000000 2014,155,21:38:14.998000 3023 500 693121000
Total: 1 trace(s) with 2 segment(s)
sta : R1707 : Wed 17 Jun 2020 04:35:44 PM CEST
   Source                Start sample             End sample        Gap  Hz  Samples
SG_R1707__EHZ     2014,128,18:44:36.000000 2014,140,00:42:44.998000  ==  500 485944500
SG_R1707__EHZ     2014,140,01:29:31.000000 2014,156,01:14:56.998000 2806 500 690763000
Total: 1 trace(s) with 2 segment(s)
sta : R1708 : Wed 17 Jun 2020 04:36:32 PM CEST
   Source                Start sample             End sample        Gap  Hz  Samples
SG_R1708__EHZ     2014,129,03:28:21.000000 2014,130,23:59:59.998000  ==  500 80149500
SG_R1708__EHZ     2014,132,00:00:00.000000 2014,139,23:41:21.998000 1.0d 500 345041000
SG_R1708__EHZ     2014,140,01:19:35.000000 2014,154,23:56:19.998000 1.6h 500 645502500
Total: 1 trace(s) with 3 segment(s)
sta : R1709 : Wed 17 Jun 2020 04:37:15 PM CEST
   Source                Start sample             End sample        Gap  Hz  Samples
SG_R1709__EHZ     2014,128,18:41:00.000000 2014,140,00:26:02.998000  ==  500 485551500
SG_R1709__EHZ     2014,140,00:52:16.000000 2014,155,00:51:58.998000 1573 500 647991500
Total: 1 trace(s) with 2 segment(s)
sta : R1710 : Wed 17 Jun 2020 04:38:01 PM CEST
   Source                Start sample             End sample        Gap  Hz  Samples
SG_R1710__EHZ     2014,128,18:50:33.000000 2014,139,22:59:31.998000  ==  500 482669500
SG_R1710__EHZ     2014,140,00:25:42.000000 2014,153,10:43:28.998000 1.4h 500 580133500
Total: 1 trace(s) with 2 segment(s)
sta : R1711 : Wed 17 Jun 2020 04:38:43 PM CEST
   Source                Start sample             End sample        Gap  Hz  Samples
SG_R1711__EHZ     2014,128,18:58:10.000000 2014,139,22:54:02.998000  ==  500 482276500
SG_R1711__EHZ     2014,140,00:54:50.000000 2014,154,05:33:00.998000 2.0h 500 613145500
Total: 1 trace(s) with 2 segment(s)
sta : R1712 : Wed 17 Jun 2020 04:39:30 PM CEST
   Source                Start sample             End sample        Gap  Hz  Samples
SG_R1712__EHZ     2014,128,19:07:46.000000 2014,139,22:02:30.998000  ==  500 480442500
SG_R1712__EHZ     2014,139,23:20:56.000000 2014,154,22:02:02.998000 1.3h 500 645633500
Total: 1 trace(s) with 2 segment(s)
sta : R1713 : Wed 17 Jun 2020 04:40:14 PM CEST
   Source                Start sample             End sample        Gap  Hz  Samples
SG_R1713__EHZ     2014,128,19:16:09.000000 2014,139,21:53:25.998000  ==  500 479918500
SG_R1713__EHZ     2014,139,22:24:38.000000 2014,155,02:20:08.998000 1872 500 655065500
Total: 1 trace(s) with 2 segment(s)
sta : R1714 : Wed 17 Jun 2020 04:40:56 PM CEST
   Source                Start sample             End sample        Gap  Hz  Samples
SG_R1714__EHZ     2014,128,19:32:52.000000 2014,139,21:30:50.998000  ==  500 478739500
SG_R1714__EHZ     2014,139,22:12:05.000000 2014,145,23:59:59.998000 2474 500 262437500
SG_R1714__EHZ     2014,147,00:00:00.000000 2014,155,00:27:09.998000 1.0d 500 346415000
Total: 1 trace(s) with 3 segment(s)
sta : R1715 : Wed 17 Jun 2020 04:41:35 PM CEST
   Source                Start sample             End sample        Gap  Hz  Samples
SG_R1715__EHZ     2014,128,20:10:55.000000 2014,139,20:19:43.998000  ==  500 475464500
SG_R1715__EHZ     2014,139,21:20:06.000000 2014,156,08:17:59.998000 1.0h 500 710937000
Total: 1 trace(s) with 2 segment(s)
sta : R1716 : Wed 17 Jun 2020 04:42:27 PM CEST
   Source                Start sample             End sample        Gap  Hz  Samples
SG_R1716__EHZ     2014,128,20:32:59.000000 2014,139,19:58:07.998000  ==  500 474154500
SG_R1716__EHZ     2014,139,20:10:15.000000 2014,155,03:24:26.998000 727  500 661026000
Total: 1 trace(s) with 2 segment(s)
sta : R1717 : Wed 17 Jun 2020 04:43:07 PM CEST
   Source                Start sample             End sample        Gap  Hz  Samples
SG_R1717__EHZ     2014,128,20:52:17.000000 2014,139,19:16:17.998000  ==  500 472320500
SG_R1717__EHZ     2014,139,21:36:33.000000 2014,154,06:41:05.998000 2.3h 500 621136500
Total: 1 trace(s) with 2 segment(s)
sta : R1718 : Wed 17 Jun 2020 04:43:45 PM CEST
   Source                Start sample             End sample        Gap  Hz  Samples
SG_R1718__EHZ     2014,128,20:57:05.000000 2014,139,19:12:21.998000  ==  500 472058500
SG_R1718__EHZ     2014,139,19:14:03.000000 2014,155,03:03:10.998000 101  500 662074000
Total: 1 trace(s) with 2 segment(s)
sta : R1719 : Wed 17 Jun 2020 04:44:32 PM CEST
   Source                Start sample             End sample        Gap  Hz  Samples
SG_R1719__EHZ     2014,128,21:11:52.000000 2014,139,17:29:14.998000  ==  500 468521500
SG_R1719__EHZ     2014,139,18:18:46.000000 2014,151,06:23:42.998000 2971 500 496948500
Total: 1 trace(s) with 2 segment(s)
sta : R1720 : Wed 17 Jun 2020 04:45:15 PM CEST
   Source                Start sample             End sample        Gap  Hz  Samples
SG_R1720__EHZ     2014,128,21:54:50.000000 2014,139,17:28:32.998000  ==  500 467211500
SG_R1720__EHZ     2014,139,17:33:44.000000 2014,155,03:51:19.998000 311  500 666528000
Total: 1 trace(s) with 2 segment(s)
sta : R1801 : Wed 17 Jun 2020 04:45:51 PM CEST
   Source                Start sample             End sample        Gap  Hz  Samples
SG_R1801__EHZ     2014,128,16:28:31.000000 2014,139,21:21:09.998000  ==  500 483979500
SG_R1801__EHZ     2014,139,21:27:47.000000 2014,154,10:01:55.998000 397  500 627424500
Total: 1 trace(s) with 2 segment(s)
sta : R1802 : Wed 17 Jun 2020 04:46:40 PM CEST
   Source                Start sample             End sample        Gap  Hz  Samples
SG_R1802__EHZ     2014,128,16:53:53.000000 2014,139,21:20:19.998000  ==  500 483193500
SG_R1802__EHZ     2014,139,22:08:58.000000 2014,145,23:59:59.998000 2918 500 262531000
SG_R1802__EHZ     2014,147,00:00:00.000000 2014,154,18:08:30.998000 1.0d 500 335055500
Total: 1 trace(s) with 3 segment(s)
sta : R1803 : Wed 17 Jun 2020 04:47:29 PM CEST
   Source                Start sample             End sample        Gap  Hz  Samples
SG_R1803__EHZ     2014,128,21:04:44.000000 2014,139,21:35:22.998000  ==  500 476119500
SG_R1803__EHZ     2014,139,22:11:07.000000 2014,152,02:47:17.998000 2144 500 526685500
Total: 1 trace(s) with 2 segment(s)
sta : R1804 : Wed 17 Jun 2020 04:48:12 PM CEST
   Source                Start sample             End sample        Gap  Hz  Samples
SG_R1804__EHZ     2014,128,17:33:22.000000 2014,139,21:55:26.998000  ==  500 483062500
SG_R1804__EHZ     2014,139,22:40:55.000000 2014,151,01:18:11.998000 2728 500 479918500
Total: 1 trace(s) with 2 segment(s)
sta : R1805 : Wed 17 Jun 2020 04:48:56 PM CEST
   Source                Start sample             End sample        Gap  Hz  Samples
SG_R1805__EHZ     2014,128,17:42:11.000000 2014,139,21:59:53.998000  ==  500 482931500
SG_R1805__EHZ     2014,139,22:57:32.000000 2014,155,16:49:15.998000 3458 500 680152000
Total: 1 trace(s) with 2 segment(s)
sta : R1806 : Wed 17 Jun 2020 04:49:45 PM CEST
   Source                Start sample             End sample        Gap  Hz  Samples
SG_R1806__EHZ     2014,128,18:07:21.000000 2014,139,22:16:19.998000  ==  500 482669500
SG_R1806__EHZ     2014,139,23:18:44.000000 2014,155,11:29:51.998000 1.0h 500 669934000
Total: 1 trace(s) with 2 segment(s)
sta : R1807 : Wed 17 Jun 2020 04:50:27 PM CEST
   Source                Start sample             End sample        Gap  Hz  Samples
SG_R1807__EHZ     2014,128,18:37:01.000000 2014,140,00:43:53.998000  ==  500 486206500
SG_R1807__EHZ     2014,140,01:28:32.000000 2014,155,15:11:21.998000 2678 500 672685000
Total: 1 trace(s) with 2 segment(s)
sta : R1808 : Wed 17 Jun 2020 04:51:19 PM CEST
   Source                Start sample             End sample        Gap  Hz  Samples
SG_R1808__EHZ     2014,128,18:15:41.000000 2014,139,23:38:53.998000  ==  500 484896500
SG_R1808__EHZ     2014,140,01:14:12.000000 2014,153,16:55:06.998000 1.6h 500 589827500
Total: 1 trace(s) with 2 segment(s)
sta : R1809 : Wed 17 Jun 2020 04:52:07 PM CEST
   Source                Start sample             End sample        Gap  Hz  Samples
SG_R1809__EHZ     2014,128,18:40:44.000000 2014,134,23:59:59.998000  ==  500 268778000
SG_R1809__EHZ     2014,136,00:00:00.000000 2014,140,00:25:46.998000 1.0d 500 173573500
SG_R1809__EHZ     2014,140,00:49:00.000000 2014,150,09:23:20.998000 1393 500 447430500
Total: 1 trace(s) with 3 segment(s)
sta : R1810 : Wed 17 Jun 2020 04:52:41 PM CEST
   Source                Start sample             End sample        Gap  Hz  Samples
SG_R1810__EHZ     2014,128,18:51:56.000000 2014,139,23:00:54.998000  ==  500 482669500
SG_R1810__EHZ     2014,140,00:24:12.000000 2014,155,15:16:53.998000 1.4h 500 674781000
Total: 1 trace(s) with 2 segment(s)
sta : R1811 : Wed 17 Jun 2020 04:53:32 PM CEST
   Source                Start sample             End sample        Gap  Hz  Samples
SG_R1811__EHZ     2014,128,19:10:24.000000 2014,139,23:23:44.998000  ==  500 482800500
SG_R1811__EHZ     2014,139,23:49:48.000000 2014,154,07:35:44.998000 1563 500 618778500
Total: 1 trace(s) with 2 segment(s)
sta : R1812 : Wed 17 Jun 2020 04:54:24 PM CEST
   Source                Start sample             End sample        Gap  Hz  Samples
SG_R1812__EHZ     2014,128,19:13:06.000000 2014,136,11:01:06.998000  ==  500 330840500
SG_R1812__EHZ     2014,139,23:27:08.000000 2014,155,10:02:11.998000 3.5d 500 667052000
Total: 1 trace(s) with 2 segment(s)
sta : R1813 : Wed 17 Jun 2020 04:55:11 PM CEST
   Source                Start sample             End sample        Gap  Hz  Samples
SG_R1813__EHZ     2014,128,19:14:12.000000 2014,139,22:04:34.998000  ==  500 480311500
SG_R1813__EHZ     2014,139,22:18:33.000000 2014,150,03:32:01.998000 838  500 441404500
Total: 1 trace(s) with 2 segment(s)
sta : R1814 : Wed 17 Jun 2020 04:55:50 PM CEST
   Source                Start sample             End sample        Gap  Hz  Samples
SG_R1814__EHZ     2014,128,19:33:28.000000 2014,139,21:31:26.998000  ==  500 478739500
SG_R1814__EHZ     2014,139,22:06:24.000000 2014,155,00:47:40.998000 2097 500 652838500
Total: 1 trace(s) with 2 segment(s)
sta : R1815 : Wed 17 Jun 2020 04:56:31 PM CEST
   Source                Start sample             End sample        Gap  Hz  Samples
SG_R1815__EHZ     2014,128,20:08:29.000000 2014,139,20:21:39.998000  ==  500 475595500
SG_R1815__EHZ     2014,139,21:17:44.000000 2014,155,21:33:43.998000 3364 500 691680000
Total: 1 trace(s) with 2 segment(s)
sta : R1816 : Wed 17 Jun 2020 04:57:18 PM CEST
   Source                Start sample             End sample        Gap  Hz  Samples
SG_R1816__EHZ     2014,128,20:32:18.000000 2014,139,19:57:26.998000  ==  500 474154500
SG_R1816__EHZ     2014,139,20:15:01.000000 2014,139,23:59:59.998000 1054 500 6749500
SG_R1816__EHZ     2014,141,00:00:00.000000 2014,156,00:18:04.998000 1.0d 500 648542500
Total: 1 trace(s) with 3 segment(s)
sta : R1817 : Wed 17 Jun 2020 04:57:57 PM CEST
   Source                Start sample             End sample        Gap  Hz  Samples
SG_R1817__EHZ     2014,128,20:51:50.000000 2014,139,19:15:50.998000  ==  500 472320500
SG_R1817__EHZ     2014,139,19:34:04.000000 2014,154,09:09:20.998000 1093 500 629258500
Total: 1 trace(s) with 2 segment(s)
sta : R1818 : Wed 17 Jun 2020 04:58:40 PM CEST
   Source                Start sample             End sample        Gap  Hz  Samples
SG_R1818__EHZ     2014,128,20:56:45.000000 2014,139,19:12:01.998000  ==  500 472058500
SG_R1818__EHZ     2014,139,19:15:53.000000 2014,150,10:31:57.998000 231  500 459482500
Total: 1 trace(s) with 2 segment(s)
sta : R1819 : Wed 17 Jun 2020 04:59:15 PM CEST
   Source                Start sample             End sample        Gap  Hz  Samples
SG_R1819__EHZ     2014,129,01:14:09.000000 2014,139,17:26:59.998000  ==  500 461185500
SG_R1819__EHZ     2014,139,18:18:19.000000 2014,155,22:47:34.998000 3079 500 699278000
Total: 1 trace(s) with 2 segment(s)
sta : R1820 : Wed 17 Jun 2020 05:00:03 PM CEST
   Source                Start sample             End sample        Gap  Hz  Samples
SG_R1820__EHZ     2014,128,21:56:27.000000 2014,139,17:17:03.998000  ==  500 466818500
SG_R1820__EHZ     2014,139,17:30:42.000000 2014,156,06:00:17.998000 818  500 713688000
Total: 1 trace(s) with 2 segment(s)
sta : R1901 : Wed 17 Jun 2020 05:00:44 PM CEST
   Source                Start sample             End sample        Gap  Hz  Samples
SG_R1901__EHZ     2014,128,16:27:17.000000 2014,139,21:24:17.998000  ==  500 484110500
SG_R1901__EHZ     2014,139,21:29:39.000000 2014,155,01:42:37.998000 321  500 655589500
Total: 1 trace(s) with 2 segment(s)
sta : R1902 : Wed 17 Jun 2020 05:01:36 PM CEST
   Source                Start sample             End sample        Gap  Hz  Samples
SG_R1902__EHZ     2014,128,16:54:14.000000 2014,139,21:20:40.998000  ==  500 483193500
SG_R1902__EHZ     2014,139,22:09:03.000000 2014,154,23:57:55.998000 2902 500 651266500
Total: 1 trace(s) with 2 segment(s)
sta : R1903 : Wed 17 Jun 2020 05:02:29 PM CEST
   Source                Start sample             End sample        Gap  Hz  Samples
SG_R1903__EHZ     2014,128,17:02:06.000000 2014,139,21:32:54.998000  ==  500 483324500
SG_R1903__EHZ     2014,139,22:12:23.000000 2014,146,23:59:59.998000 2368 500 305628500
SG_R1903__EHZ     2014,148,00:00:00.000000 2014,154,20:49:07.998000 1.0d 500 296674000
Total: 1 trace(s) with 3 segment(s)
sta : R1904 : Wed 17 Jun 2020 05:03:13 PM CEST
   Source                Start sample             End sample        Gap  Hz  Samples
SG_R1904__EHZ     2014,128,17:33:46.000000 2014,139,21:55:50.998000  ==  500 483062500
SG_R1904__EHZ     2014,139,23:00:38.000000 2014,155,01:06:58.998000 1.1h 500 651790500
Total: 1 trace(s) with 2 segment(s)
sta : R1905 : Wed 17 Jun 2020 05:03:59 PM CEST
   Source                Start sample             End sample        Gap  Hz  Samples
SG_R1905__EHZ     2014,128,17:47:19.000000 2014,139,22:00:39.998000  ==  500 482800500
SG_R1905__EHZ     2014,139,22:57:37.000000 2014,156,05:29:08.998000 3417 500 702946000
Total: 1 trace(s) with 2 segment(s)
sta : R1906 : Wed 17 Jun 2020 05:04:48 PM CEST
   Source                Start sample             End sample        Gap  Hz  Samples
SG_R1906__EHZ     2014,128,18:19:38.000000 2014,139,22:11:08.998000  ==  500 482145500
SG_R1906__EHZ     2014,139,23:19:30.000000 2014,155,09:10:53.998000 1.1h 500 665742000
Total: 1 trace(s) with 2 segment(s)
sta : R1907 : Wed 17 Jun 2020 05:05:38 PM CEST
   Source                Start sample             End sample        Gap  Hz  Samples
SG_R1907__EHZ     2014,128,18:37:57.000000 2014,140,00:44:49.998000  ==  500 486206500
SG_R1907__EHZ     2014,140,01:28:08.000000 2014,155,04:35:36.998000 2598 500 653624500
Total: 1 trace(s) with 2 segment(s)
sta : R1908 : Wed 17 Jun 2020 05:06:28 PM CEST
   Source                Start sample             End sample        Gap  Hz  Samples
SG_R1908__EHZ     2014,128,18:15:48.000000 2014,140,01:06:20.998000  ==  500 487516500
SG_R1908__EHZ     2014,140,01:12:17.000000 2014,155,09:58:10.998000 356  500 663777000
Total: 1 trace(s) with 2 segment(s)
sta : R1909 : Wed 17 Jun 2020 05:07:13 PM CEST
   Source                Start sample             End sample        Gap  Hz  Samples
SG_R1909__EHZ     2014,128,18:40:45.000000 2014,139,23:50:51.998000  ==  500 484503500
SG_R1909__EHZ     2014,140,00:47:55.000000 2014,155,18:22:10.998000 3423 500 679628000
Total: 1 trace(s) with 2 segment(s)
sta : R1910 : Wed 17 Jun 2020 05:08:07 PM CEST
   Source                Start sample             End sample        Gap  Hz  Samples
SG_R1910__EHZ     2014,128,18:52:15.000000 2014,139,23:01:13.998000  ==  500 482669500
SG_R1910__EHZ     2014,140,00:25:49.000000 2014,154,17:21:57.998000 1.4h 500 635284500
Total: 1 trace(s) with 2 segment(s)
sta : R1911 : Wed 17 Jun 2020 05:08:55 PM CEST
   Source                Start sample             End sample        Gap  Hz  Samples
SG_R1911__EHZ     2014,128,18:55:26.000000 2014,139,23:21:52.998000  ==  500 483193500
SG_R1911__EHZ     2014,139,23:49:45.000000 2014,145,23:59:59.998000 1672 500 259507500
SG_R1911__EHZ     2014,147,00:00:00.000000 2014,156,00:05:44.998000 1.0d 500 388972500
Total: 1 trace(s) with 3 segment(s)
sta : R1912 : Wed 17 Jun 2020 05:09:42 PM CEST
   Source                Start sample             End sample        Gap  Hz  Samples
SG_R1912__EHZ     2014,128,19:08:47.000000 2014,139,22:03:31.998000  ==  500 480442500
SG_R1912__EHZ     2014,139,23:22:15.000000 2014,155,16:04:06.998000 1.3h 500 678056000
Total: 1 trace(s) with 2 segment(s)
sta : R1913 : Wed 17 Jun 2020 05:10:31 PM CEST
   Source                Start sample             End sample        Gap  Hz  Samples
SG_R1913__EHZ     2014,128,19:14:33.000000 2014,139,22:04:55.998000  ==  500 480311500
SG_R1913__EHZ     2014,139,22:19:56.000000 2014,154,17:40:10.998000 900  500 639607500
Total: 1 trace(s) with 2 segment(s)
sta : R1914 : Wed 17 Jun 2020 05:11:12 PM CEST
   Source                Start sample             End sample        Gap  Hz  Samples
SG_R1914__EHZ     2014,128,19:33:52.000000 2014,139,21:31:50.998000  ==  500 478739500
SG_R1914__EHZ     2014,139,22:06:59.000000 2014,155,14:48:50.998000 2108 500 678056000
Total: 1 trace(s) with 2 segment(s)
sta : R1915 : Wed 17 Jun 2020 05:12:03 PM CEST
   Source                Start sample             End sample        Gap  Hz  Samples
SG_R1915__EHZ     2014,128,20:07:39.000000 2014,139,20:20:49.998000  ==  500 475595500
SG_R1915__EHZ     2014,139,21:17:34.000000 2014,155,02:49:08.998000 3404 500 657947500
Total: 1 trace(s) with 2 segment(s)
sta : R1916 : Wed 17 Jun 2020 05:12:45 PM CEST
   Source                Start sample             End sample        Gap  Hz  Samples
SG_R1916__EHZ     2014,128,20:37:07.000000 2014,139,19:57:53.998000  ==  500 474023500
SG_R1916__EHZ     2014,139,20:13:16.000000 2014,155,00:43:42.998000 922  500 656113500
Total: 1 trace(s) with 2 segment(s)
sta : R1917 : Wed 17 Jun 2020 05:13:35 PM CEST
   Source                Start sample             End sample        Gap  Hz  Samples
SG_R1917__EHZ     2014,128,20:51:51.000000 2014,139,19:20:13.998000  ==  500 472451500
SG_R1917__EHZ     2014,139,19:32:00.000000 2014,154,10:38:58.998000 706  500 632009500
Total: 1 trace(s) with 2 segment(s)
sta : R1918 : Wed 17 Jun 2020 05:14:18 PM CEST
   Source                Start sample             End sample        Gap  Hz  Samples
SG_R1918__EHZ     2014,128,20:59:27.000000 2014,139,19:14:43.998000  ==  500 472058500
SG_R1918__EHZ     2014,139,19:16:07.000000 2014,154,19:11:27.998000 83   500 647860500
Total: 1 trace(s) with 2 segment(s)
sta : R1919 : Wed 17 Jun 2020 05:14:56 PM CEST
   Source                Start sample             End sample        Gap  Hz  Samples
SG_R1919__EHZ     2014,128,21:11:25.000000 2014,139,17:24:25.998000  ==  500 468390500
SG_R1919__EHZ     2014,139,18:19:13.000000 2014,149,23:59:59.998000 3287 500 442223500
SG_R1919__EHZ     2014,151,00:00:00.000000 2014,155,09:16:16.998000 1.0d 500 189488500
Total: 1 trace(s) with 3 segment(s)
sta : R1920 : Thu 18 Jun 2020 01:42:02 PM CEST
   Source                Start sample             End sample        Gap  Hz  Samples
SG_R1920__EHZ     2014,128,21:58:05.000000 2014,139,17:14:19.998000  ==  500 466687500
SG_R1920__EHZ     2014,139,17:28:58.000000 2014,139,19:15:56.998000 878  500 3209500
Total: 1 trace(s) with 2 segment(s)
sta : R2001 : Wed 17 Jun 2020 05:16:06 PM CEST
   Source                Start sample             End sample        Gap  Hz  Samples
SG_R2001__EHZ     2014,128,16:28:41.000000 2014,139,21:25:41.998000  ==  500 484110500
SG_R2001__EHZ     2014,139,21:31:12.000000 2014,155,03:20:14.998000 330  500 658471500
Total: 1 trace(s) with 2 segment(s)
sta : R2002 : Wed 17 Jun 2020 05:16:53 PM CEST
   Source                Start sample             End sample        Gap  Hz  Samples
SG_R2002__EHZ     2014,128,16:56:39.000000 2014,139,21:23:05.998000  ==  500 483193500
SG_R2002__EHZ     2014,139,22:07:48.000000 2014,155,02:51:20.998000 2682 500 656506500
Total: 1 trace(s) with 2 segment(s)
sta : R2003 : Wed 17 Jun 2020 05:17:46 PM CEST
   Source                Start sample             End sample        Gap  Hz  Samples
SG_R2003__EHZ     2014,128,16:57:35.000000 2014,139,21:28:23.998000  ==  500 483324500
SG_R2003__EHZ     2014,139,22:12:58.000000 2014,155,12:52:33.998000 2674 500 674388000
Total: 1 trace(s) with 2 segment(s)
sta : R2004 : Wed 17 Jun 2020 05:18:34 PM CEST
   Source                Start sample             End sample        Gap  Hz  Samples
SG_R2004__EHZ     2014,128,17:35:31.000000 2014,139,21:53:13.998000  ==  500 482931500
SG_R2004__EHZ     2014,139,22:36:57.000000 2014,155,23:23:30.998000 2623 500 692597000
Total: 1 trace(s) with 2 segment(s)
sta : R2005 : Wed 17 Jun 2020 05:19:20 PM CEST
   Source                Start sample             End sample        Gap  Hz  Samples
SG_R2005__EHZ     2014,128,17:40:34.000000 2014,139,22:02:38.998000  ==  500 483062500
SG_R2005__EHZ     2014,139,22:58:14.000000 2014,155,11:44:17.998000 3335 500 670982000
Total: 1 trace(s) with 2 segment(s)
sta : R2006 : Wed 17 Jun 2020 05:20:09 PM CEST
   Source                Start sample             End sample        Gap  Hz  Samples
SG_R2006__EHZ     2014,128,20:10:30.000000 2014,139,22:12:50.998000  ==  500 478870500
SG_R2006__EHZ     2014,139,23:17:10.000000 2014,156,09:35:45.998000 1.1h 500 709758000
Total: 1 trace(s) with 2 segment(s)
sta : R2007 : Wed 17 Jun 2020 05:21:00 PM CEST
   Source                Start sample             End sample        Gap  Hz  Samples
SG_R2007__EHZ     2014,128,18:44:36.000000 2014,140,00:42:44.998000  ==  500 485944500
SG_R2007__EHZ     2014,140,01:28:15.000000 2014,154,20:04:49.998000 2730 500 638297500
Total: 1 trace(s) with 2 segment(s)
sta : R2008 : Wed 17 Jun 2020 05:21:45 PM CEST
   Source                Start sample             End sample        Gap  Hz  Samples
SG_R2008__EHZ     2014,128,18:16:36.000000 2014,140,01:07:08.998000  ==  500 487516500
SG_R2008__EHZ     2014,140,01:11:14.000000 2014,155,15:02:47.998000 245  500 672947000
Total: 1 trace(s) with 2 segment(s)
sta : R2009 : Wed 17 Jun 2020 05:22:26 PM CEST
   Source                Start sample             End sample        Gap  Hz  Samples
SG_R2009__EHZ     2014,128,18:39:58.000000 2014,139,23:50:04.998000  ==  500 484503500
SG_R2009__EHZ     2014,140,00:36:10.000000 2014,154,10:28:44.998000 2765 500 622577500
Total: 1 trace(s) with 2 segment(s)
sta : R2010 : Wed 17 Jun 2020 05:23:08 PM CEST
   Source                Start sample             End sample        Gap  Hz  Samples
SG_R2010__EHZ     2014,128,18:57:07.000000 2014,139,23:01:43.998000  ==  500 482538500
SG_R2010__EHZ     2014,140,00:25:49.000000 2014,154,10:09:39.998000 1.4h 500 622315500
Total: 1 trace(s) with 2 segment(s)
sta : R2011 : Wed 17 Jun 2020 05:23:48 PM CEST
   Source                Start sample             End sample        Gap  Hz  Samples
SG_R2011__EHZ     2014,128,18:52:59.000000 2014,139,23:23:47.998000  ==  500 483324500
SG_R2011__EHZ     2014,139,23:47:50.000000 2014,154,22:11:28.998000 1442 500 645109500
Total: 1 trace(s) with 2 segment(s)
sta : R2012 : Wed 17 Jun 2020 05:24:28 PM CEST
   Source                Start sample             End sample        Gap  Hz  Samples
SG_R2012__EHZ     2014,128,19:11:43.000000 2014,139,22:06:27.998000  ==  500 480442500
SG_R2012__EHZ     2014,139,23:24:23.000000 2014,145,23:59:59.998000 1.3h 500 260268500
SG_R2012__EHZ     2014,147,00:00:00.000000 2014,154,06:57:13.998000 1.0d 500 314917000
Total: 1 trace(s) with 3 segment(s)
sta : R2013 : Wed 17 Jun 2020 05:25:00 PM CEST
   Source                Start sample             End sample        Gap  Hz  Samples
SG_R2013__EHZ     2014,128,19:13:40.000000 2014,139,22:08:24.998000  ==  500 480442500
SG_R2013__EHZ     2014,139,22:18:25.000000 2014,154,22:44:19.998000 600  500 648777500
Total: 1 trace(s) with 2 segment(s)
sta : R2014 : Wed 17 Jun 2020 05:25:33 PM CEST
   Source                Start sample             End sample        Gap  Hz  Samples
SG_R2014__EHZ     2014,128,19:34:54.000000 2014,139,21:32:52.998000  ==  500 478739500
SG_R2014__EHZ     2014,139,22:07:33.000000 2014,155,10:18:40.998000 2080 500 669934000
Total: 1 trace(s) with 2 segment(s)
sta : R2015 : Wed 17 Jun 2020 05:26:08 PM CEST
   Source                Start sample             End sample        Gap  Hz  Samples
SG_R2015__EHZ     2014,128,20:09:52.000000 2014,139,20:23:02.998000  ==  500 475595500
SG_R2015__EHZ     2014,139,21:15:43.000000 2014,155,05:48:30.998000 3160 500 663384000
Total: 1 trace(s) with 2 segment(s)
sta : R2016 : Wed 17 Jun 2020 05:26:35 PM CEST
   Source                Start sample             End sample        Gap  Hz  Samples
SG_R2016__EHZ     2014,128,20:37:07.000000 2014,139,19:57:53.998000  ==  500 474023500
SG_R2016__EHZ     2014,139,20:12:29.000000 2014,154,23:06:51.998000 875  500 653231500
Total: 1 trace(s) with 2 segment(s)
sta : R2017 : Wed 17 Jun 2020 05:27:01 PM CEST
   Source                Start sample             End sample        Gap  Hz  Samples
SG_R2017__EHZ     2014,128,21:02:08.000000 2014,139,19:17:24.998000  ==  500 472058500
SG_R2017__EHZ     2014,139,19:30:05.000000 2014,155,00:39:49.998000 760  500 657292500
Total: 1 trace(s) with 2 segment(s)
sta : R2018 : Wed 17 Jun 2020 05:27:28 PM CEST
   Source                Start sample             End sample        Gap  Hz  Samples
SG_R2018__EHZ     2014,128,20:55:38.000000 2014,139,19:15:16.998000  ==  500 472189500
SG_R2018__EHZ     2014,139,19:18:58.000000 2014,143,23:59:59.998000 221  500 181231000
SG_R2018__EHZ     2014,145,00:00:00.000000 2014,156,03:44:01.998000 1.0d 500 481921000
Total: 1 trace(s) with 3 segment(s)
sta : R2019 : Wed 17 Jun 2020 05:27:54 PM CEST
   Source                Start sample             End sample        Gap  Hz  Samples
SG_R2019__EHZ     2014,128,21:09:09.000000 2014,139,17:26:31.998000  ==  500 468521500
SG_R2019__EHZ     2014,139,18:21:07.000000 2014,156,07:43:06.998000 3275 500 715260000
Total: 1 trace(s) with 2 segment(s)
sta : R2020 : Wed 17 Jun 2020 05:28:19 PM CEST
   Source                Start sample             End sample        Gap  Hz  Samples
SG_R2020__EHZ     2014,128,22:00:33.000000 2014,139,17:08:03.998000  ==  500 466425500
SG_R2020__EHZ     2014,139,17:25:51.000000 2014,154,22:18:07.998000 1067 500 656768500
Total: 1 trace(s) with 2 segment(s)
sta : R2101 : Wed 17 Jun 2020 05:28:35 PM CEST
   Source                Start sample             End sample        Gap  Hz  Samples
SG_R2101__EHZ     2014,128,16:25:53.000000 2014,139,21:27:15.998000  ==  500 484241500
SG_R2101__EHZ     2014,139,21:29:55.000000 2014,154,04:19:05.998000 159  500 617075500
Total: 1 trace(s) with 2 segment(s)
sta : R2102 : Wed 17 Jun 2020 05:28:53 PM CEST
   Source                Start sample             End sample        Gap  Hz  Samples
SG_R2102__EHZ     2014,129,15:47:53.000000 2014,139,21:23:11.998000  ==  500 442059500
SG_R2102__EHZ     2014,139,22:03:54.000000 2014,155,05:04:59.998000 2442 500 660633000
Total: 1 trace(s) with 2 segment(s)
